8

C          0.1685628  0.7188808 -0.1937317 
C         -0.1685628 -0.7188808  0.1937317 
H         -0.5297041  1.1274120 -0.9697194 
Cl         1.8282073  0.7873218 -0.8057137 
Cl         0.1061889  1.7444887  1.2477480 
Cl        -0.1061889 -1.7444887 -1.2477480 
Cl        -1.8282073 -0.7873218  0.8057137 
H          0.5297041 -1.1274120  0.9697194 
