176

C     -6.4721413  3.2743116  0.2581018 
C     -6.3027381  1.8902538  0.2604053 
C     -5.1318732  1.3165063  0.7812640 
C     -4.1396433  2.1432175  1.2974258 
C     -4.3063754  3.5572625  1.2828612 
C     -5.4704853  4.1164448  0.7685005 
C     -2.8572317  1.6511796  1.8584810 
C     -2.6346352  1.6780814  3.2579194 
C     -1.3564445  1.4491303  3.7615559 
C     -0.2492930  1.3209379  2.9003151 
C     -0.4743696  1.3137569  1.4785375 
C     -1.7913312  1.4228136  0.9944205 
C      0.6487800  1.2959111  0.5295579 
C      1.8677544  1.0089601  1.0974587 
C      2.0994813  1.0274402  2.5301751 
C      1.1168162  1.3203933  3.4478223 
C      3.4827041  1.3536007  2.7418394 
C      3.9358214  2.0061964  3.8758006 
C      2.9439822  2.1304243  4.9191555 
C      1.6138742  1.8051533  4.7159560 
C      3.1111485  1.3076698  0.4439027 
C      3.1833458  1.9011733 -0.8049353 
C      1.9123535  2.0008172 -1.4856927 
C      0.7151742  1.7185614 -0.8524628 
C      4.1152850  1.5101631  1.4566778 
C      5.2283192  2.6494511  3.7147816 
C      5.8351246  2.7908974  2.4843313 
C      5.2236652  2.3092297  1.2585671 
C      4.4638796  2.5233726 -1.0919926 
C      5.4241518  2.7160431 -0.1208508 
C     -3.6836835  2.2297988  4.1513247 
C     -4.4884194  1.4567499  4.9815611 
C     -5.4490965  2.0829079  5.7920817 
C     -5.5987038  3.4688038  5.7686011 
C     -4.7909475  4.2577333  4.9335366 
C     -3.8378228  3.6455254  4.1273840 
C     -2.9212685  4.3672858  3.2099739 
C     -3.1554968  4.3286364  1.8162145 
C     -2.1439130  4.7102669  0.9315377 
C     -0.8389665  4.9397638  1.3967745 
C     -0.6003226  4.9785531  2.8199519 
C     -1.6805019  4.7849697  3.6961732 
C      0.2796853  4.9703547  0.4370392 
C      1.4963754  4.6838327  1.0087517 
C      1.7363915  4.7226448  2.4407314 
C      0.7692759  5.0510038  3.3606120 
C      3.1285053  4.9987103  2.6441253 
C      3.6179356  5.6209605  3.7790773 
C      2.6360952  5.7720240  4.8284793 
C      1.2902797  5.5061199  4.6282207 
C      2.7438754  4.9362473  0.3488879 
C      2.8317042  5.4908253 -0.9158250 
C      1.5605513  5.5918242 -1.5957795 
C      0.3556679  5.3493525 -0.9544516 
C      3.7569907  5.1236813  1.3546771 
C      4.9409668  6.1968920  3.6043235 
C      5.5414604  6.3143331  2.3669858 
C      4.8976834  5.8695887  1.1428887 
C      4.1344059  6.0629904 -1.2125356 
C      5.1037912  6.2418112 -0.2461744 
H     -1.1986379  1.4412385  4.8397307 
H     -1.9734275  1.3810220 -0.0827841 
H      0.8917976  1.9750326  5.5124799 
H     -0.2245562  1.8510142 -1.3879680 
H      3.2579266  2.5534243  5.8710723 
H      1.9098838  2.3637194 -2.5114032 
H      5.6876598  3.0824529  4.6008963 
H      4.6241586  2.9012059 -2.0996629 
H      6.7719682  3.3374192  2.3984395 
H      6.3419882  3.2487311 -0.3603451 
H     -4.3777613  0.3743891  4.9960111 
H     -4.9976556  0.2330804  0.7735959 
H     -6.0813750  1.4772690  6.4383709 
H     -7.0783933  1.2437094 -0.1462204 
H      0.5803571  5.6913458  5.4323556 
H     -0.5791124  5.4935425 -1.4937734 
H      2.9718106  6.1607872  5.7875365 
H      1.5623092  5.9223761 -2.6324181 
H      5.4383987  6.5892561  4.4889951 
H      4.3133306  6.4022773 -2.2308663 
H      6.5110271  6.7998472  2.2773654 
H      6.0452880  6.7226046 -0.5034846 
H     -1.5174816  4.8390873  4.7724441 
H     -2.3409603  4.7040512 -0.1409066 
H     -4.9135357  5.3386243  4.9121236 
H     -5.6041521  5.1957155  0.7621160 
H     -6.3476109  3.9471556  6.3966995 
H     -7.3843105  3.7106047 -0.1436915 
C      5.6007314 -3.4818091 -5.7650151 
C      5.4495947 -2.0962365 -5.7957129 
C      4.4879210 -1.4669969 -4.9887979 
C      3.6836059 -2.2366618 -4.1550146 
C      3.8388639 -3.6521461 -4.1241735 
C      4.7932173 -4.2673840 -4.9265391 
C      2.6340100 -1.6813130 -3.2645099 
C      2.8561030 -1.6481237 -1.8651135 
C      1.7897484 -1.4165476 -1.0025128 
C      0.4729377 -1.3097644 -1.4875661 
C      0.2484127 -1.3231682 -2.9093470 
C      1.3559542 -1.4550007 -3.7696143 
C     -1.1174894 -1.3259509 -3.4572657 
C     -2.1007829 -1.0299834 -2.5412416 
C     -1.8696142 -1.0050345 -1.1084888 
C     -0.6505704 -1.2887684 -0.5390963 
C     -3.1129602 -1.3022409 -0.4540982 
C     -3.1849791 -1.8906316  0.7971663 
C     -1.9141167 -1.9865607  1.4786865 
C     -0.7170019 -1.7061058  0.8445638 
C     -3.4835656 -1.3587209 -2.7519923 
C     -3.9353961 -2.0170559 -3.8831487 
C     -2.9430661 -2.1447056 -4.9256461 
C     -1.6134869 -1.8168255 -4.7234698 
C     -4.1164732 -1.5103438 -1.4664002 
C     -4.4649544 -2.5129224  1.0865343 
C     -5.4245641 -2.7109713  0.1158801 
C     -5.2239099 -2.3099796 -1.2652373 
C     -5.2269982 -2.6614336 -3.7198068 
C     -5.8341609 -2.7981195 -2.4889911 
C      4.1384793 -2.1370381 -1.3011949 
C      5.1299853 -1.3074679 -0.7882024 
C      6.3007157 -1.8782412 -0.2637851 
C      6.4707163 -3.2622090 -0.2549072 
C      5.4698331 -4.1071673 -0.7621057 
C      4.3058434 -3.5509076 -1.2798996 
C      3.1556815 -4.3253049 -1.8103498 
C      2.9221704 -4.3702496 -3.2040306 
C      1.6818608 -4.7907673 -3.6890062 
C      0.6013559 -4.9812256 -2.8125094 
C      0.8392088 -4.9357217 -1.3893743 
C      2.1438024 -4.7034413 -0.9245076 
C     -0.7678709 -5.0576056 -3.3535485 
C     -1.7357898 -4.7259621 -2.4356877 
C     -1.4965520 -4.6800473 -1.0037885 
C     -0.2798825 -4.9626285 -0.4300465 
C     -2.7441421 -4.9305415 -0.3433472 
C     -2.8320899 -5.4788221  0.9240980 
C     -1.5612050 -5.5749884  1.6052650 
C     -0.3562260 -5.3346427  0.9633043 
C     -3.1274801 -5.0046387 -2.6384463 
C     -3.6156710 -5.6328672 -3.7706255 
C     -2.6331692 -5.7877270 -4.8188833 
C     -1.2877680 -5.5192963 -4.6192507 
C     -3.7564839 -5.1240877 -1.3487439 
C     -4.1343425 -6.0508958  1.2229094 
C     -5.1029657 -6.2356802  0.2569146 
C     -4.8964932 -5.8701700 -1.1339023 
C     -4.9381104 -6.2095081 -3.5937405 
C     -5.5391020 -6.3216575 -2.3561462 
H      1.9713506 -1.3708543  0.0746378 
H      1.1985212 -1.4520783 -4.8478534 
H      0.2227071 -1.8357212  1.3808366 
H     -0.8909072 -1.9891702 -5.5190230 
H     -1.9116944 -2.3450234  2.5059149 
H     -3.2561391 -2.5724020 -5.8757376 
H     -4.6251243 -2.8864767  2.0957901 
H     -5.6851686 -3.0992779 -4.6041225 
H     -6.3418855 -3.2437038  0.3572940 
H     -6.7701769 -3.3456859 -2.4009689 
H      4.9953148 -0.2241043 -0.7856936 
H      4.3762010 -0.3848252 -5.0086775 
H      7.0758075 -1.2295041  0.1404435 
H      6.0814256 -1.4932748 -6.4448694 
H      0.5784433 -5.4752748  1.5038246 
H     -0.5772289 -5.7074596 -5.4221636 
H     -1.5631941 -5.9000033  2.6436332 
H     -2.9680296 -6.1812916 -5.7762943 
H     -4.3134973 -6.3852971  2.2428346 
H     -5.4345712 -6.6067640 -4.4767698 
H     -6.0441232 -6.7161723  0.5160858 
H     -6.5081223 -6.8078991 -2.2646477 
H      2.3402763 -4.6922728  0.1480118 
H      1.5194260 -4.8496309 -4.7651299 
H      5.6039827 -5.1863530 -0.7505968 
H      4.9170226 -5.3479883 -4.8995425 
H      7.3827788 -3.6961956  0.1496300 
H      6.3506289 -3.9625425 -6.3901118 
