176

C      2.3049729  3.3366892 -5.9562168 
C      1.5804003  3.9978154 -4.9537449 
C      1.5699394  5.4058956 -4.9171796 
C      2.2755567  6.1324634 -5.8874822 
C      2.9877613  5.4649939 -6.8864787 
C      3.0038695  4.0666967 -6.9197091 
C      0.8249973  6.1290725 -3.8611036 
C      1.5237120  6.8224215 -2.8761794 
C      0.8556115  7.5183129 -1.8512292 
C     -0.5849465  7.5044473 -1.8291024 
C     -1.2707530  6.7961988 -2.8337142 
C     -0.5896338  6.1160775 -3.8400765 
C      1.6263628  8.2625497 -0.8410322 
C      0.8819331  8.6837465  0.2356379 
C     -0.5693881  8.6696428  0.2580565 
C     -1.3384059  8.2337046 -0.7952083 
C     -1.0037081  9.6967998  1.1629363 
C      0.1625798  10.3436959  1.7058430 
C      1.3239349  9.7194196  1.1269698 
C      0.1567902  11.6488172  2.1546011 
C     -1.1709959  12.2278188  2.2629239 
C     -2.2907570  11.6097215  1.7454328 
C     -2.2264548  10.3348623  1.0512261 
C     -3.1168353  9.7238543  0.0899579 
C     -2.6954137  8.7347876 -0.7824493 
C      1.4757371  12.2536459  2.2218584 
C      2.5907945  11.6572737  1.6698251 
C      2.5299484  10.3811672  0.9776011 
C      3.4018996  9.7873992 -0.0110012 
C      2.9730239  8.7900519 -0.8702529 
C     -1.3547729  5.3829005 -4.8750152 
C     -1.3528508  3.9746196 -4.9125087 
C     -2.1081098  3.3073281 -5.8882287 
C     -2.8434207  4.0313761 -6.8288870 
C     -2.8353046  5.4297614 -6.7983288 
C     -2.0968853  6.1031238 -5.8227065 
C      0.8419697  3.2021070 -3.9458914 
C      1.5511793  2.4584503 -3.0059857 
C      0.8941646  1.6818794 -2.0332102 
C     -0.5461244  1.6591865 -2.0236911 
C     -1.2428028  2.4198531 -2.9809949 
C     -0.5725770  3.1864477 -3.9306504 
C     -1.2889825  0.8290184 -1.0620515 
C     -0.5196037  0.3207123 -0.0419153 
C      0.9328276  0.3462986 -0.0486505 
C      1.6746336  0.8794462 -1.0770275 
C      1.3947773 -0.7566897  0.7477204 
C      0.2436228 -1.4652356  1.2468025 
C     -0.9355766 -0.7992892  0.7562142 
C     -2.6304540  0.2917300 -1.1208177 
C     -3.0341132 -0.7854276 -0.3516963 
C     -2.1374624 -1.4581106  0.5611150 
C     -2.1709845 -2.8035501  1.1058680 
C     -1.0364782 -3.4409381  1.5617708 
C      0.2701492 -2.8109979  1.5523706 
C      3.0331620  0.3882429 -1.1454057 
C      3.4815639 -0.6715834 -0.3759952 
C      2.6181026 -1.3724309  0.5471199 
C      2.7075941 -2.7106077  1.1068214 
C      1.6025974 -3.3880730  1.5770689 
H     -4.1364777  10.1006826  0.0290921 
H     -3.3907320  8.3448139 -1.5243125 
H      3.6524830  8.4136682 -1.6335546 
H      4.4115651  10.1840807 -0.1033349 
H      3.5528548  12.1661786  1.7021670 
H      1.5570891  13.2336263  2.6892402 
H     -1.2569610  13.2060919  2.7330204 
H     -3.2611292  12.0997459  1.8077148 
H     -3.1213371 -3.3320569  1.0897831 
H     -1.0879503 -4.4802041  1.8855763 
H      1.6963558 -4.4127170  1.9351484 
H      3.6806975 -3.1958204  1.0952066 
H      4.4963042 -1.0420526 -0.5050164 
H      3.7018417  0.8381428 -1.8769943 
H     -3.3206846  0.7211911 -1.8444895 
H     -4.0365823 -1.1906917 -0.4713938 
H      2.6141172  6.8081767 -2.8899470 
H     -2.3606416  6.7617205 -2.8142864 
H      2.6410147  2.4867708 -3.0182725 
H     -2.3330490  2.4189936 -2.9710050 
H     -2.0869975  7.1920906 -5.7950784 
H     -3.4042900  5.9946196 -7.5347188 
H     -3.4220210  3.5066509 -7.5869997 
H     -2.1128548  2.2184550 -5.9041970 
H      2.2573828  7.2212459 -5.8594102 
H      3.5292972  6.0345603 -7.6397954 
H      3.5600064  3.5468183 -7.6976933 
H      2.3123694  2.2474595 -5.9748601 
C      1.6747626 -9.3354640  2.4820991 
C      1.0528360 -8.2331877  1.8778798 
C      1.1568282 -8.0479739  0.4857069 
C      1.8812310 -8.9697884 -0.2846028 
C      2.4954312 -10.0663972  0.3242138 
C      2.3926622 -10.2490990  1.7072513 
C      0.5131590 -6.8908624 -0.1782596 
C      1.3067709 -5.8859224 -0.7252522 
C      0.7433186 -4.7750866 -1.3802173 
C     -0.6917585 -4.6806102 -1.4742930 
C     -1.4744550 -5.7049537 -0.9080228 
C     -0.8959501 -6.7996361 -0.2696438 
C      1.6179542 -3.7475509 -1.9700068 
C      0.9580492 -2.6051188 -2.3543694 
C     -0.4867386 -2.5080080 -2.4481914 
C     -1.3373898 -3.5495008 -2.1628364 
C     -0.7954799 -1.4957958 -3.4196375 
C      0.4428095 -0.9656456 -3.9288820 
C      1.5224863 -1.6539514 -3.2708741 
C      0.5619096 -0.4097177 -5.1861305 
C     -0.7099268 -0.1786878 -5.8485448 
C     -1.8998818 -0.6776001 -5.3589050 
C     -1.9706467 -1.4795802 -4.1488498 
C     -2.9527951 -2.4353317 -3.6865166 
C     -2.6516716 -3.4125198 -2.7525465 
C      1.9258080 -0.3683338 -5.6829192 
C      2.9657402 -1.0165497 -5.0480399 
C      2.7729184 -1.8044356 -3.8428455 
C      3.5512946 -2.8769885 -3.2634522 
C      3.0041048 -3.7945723 -2.3828538 
C     -1.7591786 -7.8654164  0.2917398 
C     -1.8617673 -8.0707583  1.6819901 
C     -2.6824124 -9.0958320  2.1752497 
C     -3.3961477 -9.9116491  1.2948681 
C     -3.2969287 -9.7071008 -0.0852618 
C     -2.4827804 -8.6883777 -0.5846569 
C      0.2925198 -7.2752625  2.7129179 
C      0.9741521 -6.4238284  3.5782835 
C      0.2935292 -5.4780800  4.3675981 
C     -1.1455823 -5.4327854  4.3073516 
C     -1.8156798 -6.3182954  3.4420047 
C     -1.1186695 -7.2116748  2.6321227 
C     -1.9124727 -4.4702656  5.1157123 
C     -1.1468143 -3.4690846  5.6649726 
C      0.3036338 -3.5095591  5.7189901 
C      1.0507106 -4.5543543  5.2284620 
C      0.7227423 -2.7146925  6.8391152 
C     -0.4516147 -2.1784914  7.4773813 
C     -1.6031949 -2.6511081  6.7532544 
C     -3.2826673 -4.4877371  5.5772680 
C     -3.7250707 -3.6996689  6.6265228 
C     -2.8452549 -2.8041105  7.3435795 
C     -2.9411384 -2.2205192  8.6710875 
C     -1.8356375 -1.7703157  9.3630274 
C     -0.4919882 -1.8433557  8.8153744 
C      2.3808874 -4.6441633  5.7887140 
C      2.7877929 -3.8776200  6.8677101 
C      1.9075202 -2.9337220  7.5193852 
C      1.9369929 -2.3531194  8.8513065 
C      0.8095982 -1.8420870  9.4607510 
H     -3.9441074 -2.4028702 -4.1345445 
H     -3.4126229 -4.1402325 -2.4766194 
H      3.6183657 -4.6141499 -2.0142890 
H      4.5875372 -2.9813877 -3.5792936 
H      3.9653325 -0.9928089 -5.4785257 
H      2.1031399  0.1540665 -6.6218647 
H     -0.6911277  0.3704203 -6.7889217 
H     -2.8248766 -0.5205053 -5.9108027 
H     -3.9252273 -2.1882420  9.1361380 
H     -1.9465201 -1.3834534  10.3748355 
H      0.8664838 -1.4594774  10.4786159 
H      2.8844659 -2.3730458  9.3875485 
H      3.7851882 -4.0135313  7.2827778 
H      3.0646766 -5.3793320  5.3677929 
H     -3.9723119 -5.1861582  5.1061603 
H     -4.7557548 -3.7819812  6.9678771 
H      2.3909058 -5.9537084 -0.6294341 
H     -2.5613208 -5.6310195 -0.9542162 
H      2.0623871 -6.4788922  3.6289124 
H     -2.9039435 -6.2816435  3.3791132 
H     -2.3965994 -8.5316118 -1.6595198 
H     -3.8517953 -10.3446525 -0.7719859 
H     -4.0275899 -10.7089655  1.6838825 
H     -2.7514646 -9.2556148  3.2508022 
H      1.9530308 -8.8275769 -1.3624062 
H      3.0522933 -10.7812004 -0.2798164 
H      2.8697323 -11.1058752  2.1807283 
H      1.5859748 -9.4770859  3.5586644 
