60

C        -3.4975627  0.6927194  0.0000078   
C        -3.0436500  1.4271897 -1.1883487   
C        -2.3092234  2.6155414 -0.7344060   
C        -2.3092085  2.6155299  0.7344885   
C        -1.1883524  3.0436503 -1.4271096   
C        -2.6155346  0.7344804 -2.3092075   
C        -3.0436557  1.4271578  1.1883763   
C        -3.4975635 -0.6927206 -0.0000117   
C        -2.6155246  0.7344111  2.3092069   
C        -1.1883661  3.0436530  1.4272207   
C         0.0000022  3.4975533 -0.6926523   
C        -0.7344477  2.3092103 -2.6154696   
C        -0.0000025  3.4975822  0.6927931   
C        -0.7344521  2.3091874  2.6155710   
C        -1.4271625  1.1883219  3.0436621   
C        -2.6155240 -0.7344765  2.3091852   
C        -3.0436556 -1.4271919  1.1883350   
C        -3.0436533 -1.4271570 -1.1883905   
C        -2.6155361 -0.7344171 -2.3092281   
C        -1.4271796  1.1883962 -3.0436648   
C         1.1883577  3.0436442 -1.4271069   
C         0.7344531  2.3092083 -2.6154689   
C        -1.4271803 -1.1883102 -3.0437017   
C        -0.6927213  0.0000471 -3.4975958   
C        -2.3092080 -2.6155475  0.7344131   
C        -2.3092262 -2.6155250 -0.7344806   
C        -1.4271617 -1.1884056  3.0436283   
C        -0.6927245 -0.0000491  3.4975581   
C         0.7344466  2.3091892  2.6155718   
C         1.1883609  3.0436589  1.4272233   
C         2.3092053  2.6155416  0.7344917   
C         2.3092265  2.6155295 -0.7344028   
C         1.4271846  1.1883941 -3.0436643   
C         0.6927255  0.0000462 -3.4975958   
C        -1.1883559 -3.0436113 -1.4271984   
C        -0.7344482 -2.3091384 -2.6155370   
C        -0.7344504 -2.3092577  2.6155027   
C        -1.1883648 -3.0436898  1.4271316   
C         0.6927205 -0.0000483  3.4975579   
C         1.4271575  1.1883241  3.0436628   
C         3.0436551  1.4271838 -1.1883466   
C         2.6155395  0.7344767 -2.3092066   
C         1.4271836 -1.1883116 -3.0437019   
C         0.7344511 -2.3091387 -2.6155370   
C         0.0000029 -3.4975349 -0.6927540   
C        -0.0000033 -3.4975968  0.6926912   
C         0.7344474 -2.3092572  2.6155025   
C         1.4271584 -1.1884044  3.0436281   
C         2.6155199  0.7344147  2.3092079   
C         3.0436507  1.4271636  1.1883783   
C         2.6155207 -0.7344738  2.3091867   
C         3.4975628  0.6927194  0.0000134   
C         2.6155395 -0.7344197 -2.3092266   
C         1.1883582 -3.0436110 -1.4271982   
C         1.1883626 -3.0436898  1.4271318   
C         2.3092101 -2.6155490  0.7344167   
C         3.0436553 -1.4271906  1.1883384   
C         3.4975636 -0.6927207 -0.0000074   
C         3.0436537 -1.4271581 -1.1883869   
C         2.3092241 -2.6155235 -0.7344771   
