88

C          2.2118827 -1.3982034 -4.8149904 
C          1.4698504 -0.7042184 -3.8465700 
C          1.4698481  0.7041683 -3.8466091 
C          2.2118764  1.3981020 -4.8150691 
C          2.9436168  0.6992743 -5.7770876 
C          2.9436203 -0.6994269 -5.7770480 
C          0.7077000  1.4719438 -2.8346596 
C          1.3971581  2.2170952 -1.8802653 
C          0.7202583  2.9762599 -0.9076173 
C         -0.7202442  2.9762585 -0.9076123 
C         -1.3971493  2.2170876 -1.8802523 
C         -0.7076966  1.4719387 -2.8346525 
C          1.4819156  3.7304754  0.1014685 
C          0.7256456  4.6185433  0.8296382 
C         -0.7256198  4.6185447  0.8296412 
C         -1.4818950  3.7304774  0.1014758 
C         -1.1638942  5.1643301  2.0831487 
C          0.0000182  5.5078159  2.8578106 
C          1.1639266  5.1643262  2.0831444 
C          0.0000208  5.5410395  4.2376463 
C         -1.3230268  5.4444782  4.8289487 
C         -2.4406181  5.1171954  4.0889750 
C         -2.3781526  4.8422378  2.6637344 
C         -3.2586212  4.0914272  1.7972107 
C         -2.8330576  3.5646947  0.5895475 
C          1.3230698  5.4444711  4.8289441 
C          2.4406571  5.1171836  4.0889663 
C          2.3781856  4.8422282  2.6637256 
C          3.2586483  4.0914148  1.7971983 
C          2.8330790  3.5646862  0.5895354 
C         -1.4698497  0.7041618 -3.8465977 
C         -1.4698508 -0.7042250 -3.8465670 
C         -2.2118892 -1.3982049 -4.8149868 
C         -2.9436363 -0.6994240 -5.7770338 
C         -2.9436337  0.6992773 -5.7770656 
C         -2.2118852  1.3980998 -4.8150497 
C          0.7077012 -1.4719503 -2.8345880 
C          1.3971591 -2.2170611 -1.8801604 
C          0.7202604 -2.9762280 -0.9075127 
C         -0.7202421 -2.9762531 -0.9075291 
C         -1.3971475 -2.2171008 -1.8801835 
C         -0.7076958 -1.4719625 -2.8345934 
C         -1.4818951 -3.7304912  0.1015433 
C         -0.7256138 -4.6185509  0.8297109 
C          0.7256513 -4.6185231  0.8297286 
C          1.4819174 -3.7304373  0.1015765 
C          1.1639230 -5.1643112  2.0832365 
C          0.0000095 -5.5078317  2.8578808 
C         -1.1638976 -5.1643606  2.0832044 
C         -2.8330688 -3.5647417  0.5895952 
C         -3.2586422 -4.0914993  1.7972439 
C         -2.3781725 -4.8423017  2.6637734 
C         -2.4406558 -5.1172802  4.0890093 
C         -1.3230695 -5.4445474  4.8289974 
C         -0.0000094 -5.5410712  4.2377164 
C          2.8330739 -3.5646382  0.5896601 
C          3.2586329 -4.0913666  1.7973279 
C          2.3781678 -4.8421978  2.6638396 
C          2.4406206 -5.1171620  4.0890800 
C          1.3230279 -5.4444800  4.8290363 
H         -4.2719604  3.8966280  2.1441257 
H         -3.5168379  2.9560748 -0.0006165 
H          3.5168548  2.9560641 -0.0006315 
H          4.2719874  3.8966096  2.1441103 
H          3.4055585  5.0085390  4.5814226 
H          1.4075750  5.5930076  5.9041324 
H         -1.4075276  5.5930165  5.9041371 
H         -3.4055185  5.0085568  4.5814346 
H         -3.4055668 -5.0086696  4.5814543 
H         -1.4075848 -5.5931000  5.9041829 
H          1.4075197 -5.5930257  5.9042240 
H          3.4055129 -5.0085074  4.5815521 
H          4.2719631 -3.8965461  2.1442576 
H          3.5168432 -2.9559911 -0.0004824 
H         -3.5168526 -2.9561306 -0.0005742 
H         -4.2719918 -3.8967264  2.1441433 
H          2.4884540  2.2154836 -1.8876238 
H         -2.4884452  2.2154686 -1.8875995 
H          2.4884556 -2.2154269 -1.8875013 
H         -2.4884434 -2.2154948 -1.8875395 
H         -2.2082844  2.4876676 -4.8167674 
H         -3.5123445  1.2441126 -6.5284483 
H         -3.5123499 -1.2442922 -6.5283908 
H         -2.2082907 -2.4877728 -4.8166548 
H          2.2082760  2.4876698 -4.8167919 
H          3.5123203  1.2441059 -6.5284784 
H          3.5123269 -1.2442989 -6.5284074 
H          2.2082863 -2.4877714 -4.8166518 
