176

C      2.3812529 -5.4020519 -5.9441599 
C      1.7143880 -4.8115443 -4.8774212 
C      1.6478567 -3.4207100 -4.7945199 
C      2.2502132 -2.6498398 -5.7811445 
C      2.8944066 -3.2453492 -6.8495840 
C      2.9601108 -4.6261359 -6.9313807 
C      0.9927485 -2.7520199 -3.6523117 
C      1.7500557 -2.0060182 -2.7711826 
C      1.1896159 -1.3129356 -1.6976160 
C     -0.2352172 -1.3521687 -1.5381994 
C     -0.9793043 -2.0989136 -2.4525215 
C     -0.3965382 -2.8084611 -3.4841708 
C      2.0225746 -0.5026258 -0.8207563 
C      1.3676451  0.0118223  0.2743343 
C     -0.0470572 -0.0157882  0.4250595 
C     -0.8960285 -0.5681935 -0.5047793 
C     -0.4146906  1.0768987  1.2356566 
C      0.7573317  1.7768372  1.5882634 
C      1.8569289  1.1153427  1.0007197 
C      0.7661086  3.1290563  1.8631729 
C     -0.5315163  3.7177570  1.9562815 
C     -1.6767612  3.0322977  1.6357015 
C     -1.6541003  1.6853948  1.1590519 
C     -2.6026010  0.9725335  0.3667602 
C     -2.2399820 -0.0922456 -0.4262037 
C      2.0537188  3.7448174  1.7476780 
C      3.1314033  3.0964374  1.1987064 
C      3.0378289  1.7624720  0.6856725 
C      3.8214254  1.0916628 -0.2994549 
C      3.3348483  0.0224798 -1.0186299 
C     -1.2445261 -3.5635194 -4.4278596 
C     -1.1770817 -4.9552564 -4.5033190 
C     -2.0228990 -5.6343737 -5.3723913 
C     -2.9139058 -4.9454983 -6.1742812 
C     -2.9826554 -3.5646097 -6.0979917 
C     -2.1591476 -2.8823689 -5.2219424 
C      1.1277068 -5.6627497 -3.8235670 
C      1.9495411 -6.4516562 -3.0422107 
C      1.4553251 -7.3000930 -2.0506687 
C      0.0342907 -7.3655893 -1.8627653 
C     -0.7750881 -6.5779477 -2.6825129 
C     -0.2594486 -5.7270130 -3.6409274 
C     -0.5532636 -8.2793263 -0.8919371 
C      0.3518292 -8.8425602 -0.0231574 
C      1.7611085 -8.7773335 -0.2093937 
C      2.3549639 -8.1449016 -1.2764075 
C      2.3309622 -9.8998813  0.4225682 
C      1.2896268 -10.6560508  1.0010181 
C      0.0697077 -10.0046494  0.7212960 
C     -1.8600747 -8.8499926 -0.8250283 
C     -2.1399146 -9.9838332 -0.0931087 
C     -1.1359710 -10.6787744  0.6456430 
C     -1.0741805 -12.0389561  1.0924159 
C      0.1153411 -12.6713078  1.3635466 
C      1.3816509 -12.0161888  1.2203346 
C      3.6807355 -8.5935182 -1.5572959 
C      4.2426937 -9.6881432 -0.9363266 
C      3.5319954 -10.4624455  0.0290571 
C      3.7120767 -11.8170810  0.4604058 
C      2.6959985 -12.5516515  1.0228435 
H     -3.6165026  1.3440875  0.3054693 
H     -2.9894489 -0.5161116 -1.0802237 
H      3.9450970 -0.3666587 -1.8215366 
H      4.7896768  1.4955733 -0.5634036 
H      4.0533204  3.6442408  1.0556656 
H      2.1512649  4.7871484  2.0185373 
H     -0.6059922  4.7701706  2.1827665 
H     -2.6148578  3.5697771  1.6352620 
H     -1.9892347 -12.6146877  1.1315793 
H      0.0998997 -13.7249420  1.6082316 
H      2.8700840 -13.5964702  1.2426285 
H      4.6545066 -12.3066773  0.2543790 
H      5.2181044 -10.0238237 -1.2619296 
H      4.2426568 -8.1170846 -2.3486157 
H     -2.6487926 -8.4360567 -1.4378233 
H     -3.1316487 -10.4107474 -0.1589610 
H      2.8206344 -1.9720673 -2.9139659 
H     -2.0534351 -2.1403658 -2.3417818 
H      3.0177200 -6.3923770 -3.1952211 
H     -1.8472778 -6.6187867 -2.5533003 
H     -2.2109270 -1.8062994 -5.1472816 
H     -3.6815293 -3.0211785 -6.7170396 
H     -3.5579942 -5.4851457 -6.8528675 
H     -1.9697631 -6.7130164 -5.4189450 
H      2.2024397 -1.5734514 -5.7020517 
H      3.3500661 -2.6342540 -7.6150337 
H      3.4669182 -5.0974735 -7.7605533 
H      2.4352764 -6.4803434 -5.9966571 
H     -3.9062801  2.3347058 -3.3839318 
H     -2.3478577  0.5631560 -4.8850039 
C     -2.9875482  2.5303012 -2.8469651 
C     -1.5339057  0.8900556 -4.2508668 
C     -1.8357836  1.7404097 -3.1381168 
C     -2.9443921  3.6100719 -1.9890021 
C     -0.2459648  0.5773989 -4.6145497 
H     -0.0866915  0.0011017 -5.5165613 
C     -0.7407078  2.0370929 -2.3471565 
C      0.8928584  1.0882228 -3.9106279 
C      0.5814610  1.7240393 -2.7258396 
C      2.2493511  1.2804423 -4.3309949 
C      1.4419312  2.6509391 -2.1011485 
H      2.5998633  0.7660624 -5.2161103 
C      3.0883653  2.1850080 -3.7261107 
C      2.6709307  3.0046545 -2.6270655 
C      3.1628519  4.2558577 -2.1503287 
H      4.0692807  2.3475679 -4.1528346 
H      4.1383836  4.5927419 -2.4749774 
H     -3.8342846  4.2172022 -1.8927677 
C     -5.0188984  9.3842768  1.3737416 
C     -4.0124710  8.6954044  0.7198538 
C     -1.7499122  4.0156266 -1.3258210 
H     -3.8996668  8.7794783 -0.3518142 
C     -2.3727067  6.0561729 -0.0560750 
C     -0.7001934  3.1417654 -1.4773527 
C     -1.3914503  5.2480576 -0.6319460 
C      0.6604466  3.5230023 -1.3227205 
C     -0.0184404  5.6285297 -0.4683145 
C      1.0560859  4.7992432 -1.0026137 
C      0.2650149  6.7798957  0.2677864 
C      2.3947539  5.1067412 -1.3827073 
C      0.1548211  9.8145381  1.2621058 
H      0.2750222  9.9010953  0.1914160 
C      0.5039594  10.8651043  2.0922686 
H      2.8025170  6.0783135 -1.1391441 
H      0.8962668  11.7781837  1.6692084 
H     -5.6944792  10.0121153  0.8116030 
H     -3.4118193  5.7831420 -0.1761617 
C     -3.1304350  7.8954653  1.4321579 
C     -2.0617047  7.1412435  0.7411222 
C     -0.7195860  7.5064194  0.9108535 
C     -0.3623490  8.6405417  1.7912306 
H      1.2970012  7.0727350  0.4021090 
C      0.3553384  10.7423591  3.4630960 
H     -4.3666392  3.2740383  3.8789944 
C     -3.5121981  2.6785644  4.1696471 
H     -5.9492059  9.7974701  3.2571024 
C     -5.1618474  9.2638501  2.7454137 
H     -3.8355255  5.4012249  3.8888012 
C     -4.2985263  8.4537200  3.4619508 
H     -4.4094331  8.3479840  4.5317799 
C     -2.3570370  3.3275111  4.7104447 
C     -2.7945173  5.6583714  4.0211189 
C     -3.2760651  7.7737382  2.8169265 
C     -1.3862929  2.4609647  5.1573836 
C     -1.9241609  4.7089630  4.5677630 
C     -2.3584279  6.8809161  3.5561959 
C     -0.5506425  5.0836406  4.7576218 
C     -0.0264126  2.8322971  5.3469114 
C     -1.0163642  7.2442474  3.7342731 
C     -0.1622864  6.3739733  4.3786668 
C      0.4602433  4.0959764  5.1020974 
C     -0.5113993  8.5170789  3.1761440 
C     -0.1415601  9.5686123  4.0018763 
H      0.8648126  6.6762582  4.5238660 
H     -0.2518990  9.4622515  5.0717223 
H      0.6311490  11.5592300  4.1135958 
H     -4.4227220  0.9228649  3.4069504 
H     -2.8140905 -1.3219887  2.9921877 
C     -3.5505076  1.3301687  3.9003487 
C     -2.0621695 -0.7675761  3.5375239 
C     -2.4273540  0.4811351  4.1343670 
C     -0.7666078 -1.2245379  3.5250324 
H     -0.5378541 -2.1248848  2.9707417 
C     -1.4193370  1.0802218  4.8673955 
C      0.3093307 -0.4902609  4.1191107 
C     -0.0935333  0.5997364  4.8670069 
C      1.7192136 -0.5473887  3.8772713 
C      0.7641704  1.6763111  5.1738225 
H      2.1212637 -1.4009381  3.3481777 
C      2.5602926  0.4931379  4.1895091 
C      2.0860897  1.7128126  4.7693246 
C      1.8789978  4.1495875  4.9267851 
C      2.6528727  3.0225522  4.7736103 
H      3.5999319  0.4272763  3.8978218 
H      2.3647691  5.1101145  4.8264496 
H      3.7051408  3.1407142  4.5533458 
