60

C         -3.4552280  0.6939917 -0.0000012 
C         -3.0097939  1.4147412 -1.1661464 
C         -2.2890774  2.5809235 -0.7207016 
C         -2.2890691  2.5808785  0.7207642 
C         -1.1661684  3.0098387 -1.4146929 
C         -2.5808746  0.7207634 -2.2890510 
C         -3.0098013  1.4147067  1.1661889 
C         -3.4552247 -0.6939898 -0.0000176 
C         -2.5808894  0.7207073  2.2890801 
C         -1.1661728  3.0097728  1.4147597 
C          0.0000000  3.4552623 -0.6939488 
C         -0.7207307  2.2891122 -2.5808512 
C         -0.0000003  3.4552394  0.6940296 
C         -0.7207368  2.2890294  2.5809152 
C         -1.4147299  1.1661271  3.0098102 
C         -2.5808794 -0.7207724  2.2890540 
C         -3.0097987 -1.4147379  1.1661482 
C         -3.0097900 -1.4147038 -1.1661865 
C         -2.5808805 -0.7206976 -2.2890721 
C         -1.4147189  1.1662196 -3.0097767 
C          1.1661702  3.0098389 -1.4146912 
C          0.7207339  2.2891112 -2.5808494 
C         -1.4147138 -1.1661300 -3.0098119 
C         -0.6939789  0.0000443 -3.4552256 
C         -2.2890687 -2.5809088  0.7206929 
C         -2.2890721 -2.5808953 -0.7207698 
C         -1.4147227 -1.1662096  3.0097784 
C         -0.6939883 -0.0000479  3.4552443 
C          0.7207335  2.2890298  2.5809164 
C          1.1661713  3.0097728  1.4147612 
C          2.2890686  2.5808787  0.7207675 
C          2.2890779  2.5809238 -0.7206983 
C          1.4147223  1.1662196 -3.0097751 
C          0.6939829  0.0000443 -3.4552239 
C         -1.1661662 -3.0097969 -1.4147761 
C         -0.7207288 -2.2890423 -2.5809141 
C         -0.7207349 -2.2891060  2.5808559 
C         -1.1661737 -3.0098164  1.4146790 
C          0.6939839 -0.0000479  3.4552452 
C          1.4147261  1.1661273  3.0098121 
C          3.0097953  1.4147413 -1.1661426 
C          2.5808779  0.7207630 -2.2890472 
C          1.4147172 -1.1661299 -3.0098103 
C          0.7207321 -2.2890413 -2.5809122 
C          0.0000000 -3.4552436 -0.6940435 
C         -0.0000003 -3.4552618  0.6939356 
C          0.7207315 -2.2891064  2.5808571 
C          1.4147189 -1.1662098  3.0097803 
C          2.5808865  0.7207072  2.2890835 
C          3.0098002  1.4147062  1.1661926 
C          2.5808766 -0.7207724  2.2890574 
C          3.4552279  0.6939919  0.0000034 
C          2.5808837 -0.7206971 -2.2890682 
C          1.1661681 -3.0097971 -1.4147744 
C          1.1661721 -3.0098165  1.4146806 
C          2.2890680 -2.5809090  0.7206963 
C          3.0097974 -1.4147375  1.1661519 
C          3.4552246 -0.6939900 -0.0000130 
C          3.0097915 -1.4147039 -1.1661827 
C          2.2890728 -2.5808956 -0.7207665 
