118

C          1.9697137 -1.4782524 -5.3058287 
C          1.2918155 -0.6466667 -4.4281695 
C          1.3561801  0.7396654 -4.5987793 
C          2.0966752  1.2692184 -5.6440575 
C          2.7563139  0.4305785 -6.5263159 
C          2.6930509 -0.9418236 -6.3573241 
C          0.6545530  1.5961757 -3.6182843 
C          1.3597962  2.2862009 -2.6541320 
C          0.7283122  2.9955655 -1.6292151 
C         -0.7061732  3.0386816 -1.6193510 
C         -1.3933806  2.3839629 -2.6439203 
C         -0.7455264  1.6541042 -3.6182440 
C          1.5050017  3.5678394 -0.5383943 
C          0.7734587  4.3246826  0.3455332 
C         -0.6479059  4.3632704  0.3572872 
C         -1.4330446  3.6482451 -0.5150739 
C         -1.0593517  4.6754865  1.6673809 
C          0.0926375  4.8339707  2.4643255 
C          1.2214143  4.6132272  1.6492741 
C          0.0973026  4.6319584  3.8293947 
C         -1.2082507  4.4692329  4.3969876 
C         -2.3312816  4.3079930  3.6221492 
C         -2.2820688  4.2980952  2.1905003 
C         -3.1738426  3.7432550  1.2246234 
C         -2.7678379  3.4322597 -0.0545383 
C          1.3994925  4.3905309  4.3758461 
C          2.5004130  4.1696461  3.5835106 
C          2.4300599  4.1700637  2.1529612 
C          3.2774668  3.5748635  1.1713414 
C          2.8350037  3.2859558 -0.1008566 
C         -1.5142328  0.8716504 -4.6097419 
C         -1.5785467 -0.5136835 -4.4394553 
C         -2.3172119 -1.2814288 -5.3258877 
C         -2.9756609 -0.6806956 -6.3853770 
C         -2.9117714  0.6917830 -6.5538074 
C         -2.1892429  1.4676000 -5.6632077 
C          0.5258250 -1.1749050 -3.2788228 
C          1.1754997 -1.6803030 -2.1719250 
C          0.4932854 -2.0749833 -1.0191382 
C         -0.9381345 -1.9779010 -1.0131108 
C         -1.5741089 -1.5170120 -2.1673166 
C         -0.8734338 -1.1020705 -3.2804884 
C         -1.7061677 -2.2596007  0.1910829 
C         -0.9813997 -2.8516031  1.1961150 
C          0.4350889 -2.9590757  1.1854340 
C          1.2259195 -2.4754907  0.1726928 
C          0.8695920 -3.0309079  2.5219030 
C         -0.2636203 -2.9718978  3.3579484 
C         -1.4046189 -2.8572644  2.5381950 
C         -3.0072647 -1.8270180  0.5903393 
C         -3.4240623 -1.8326871  1.9042348 
C         -2.5785419 -2.2677849  2.9682546 
C         -2.6087704 -1.9930462  4.3744420 
C         -1.4967542 -2.1105803  5.1729229 
C         -0.2203806 -2.5106375  4.6573453 
C          2.5843621 -2.2572267  0.5525460 
C          3.0147744 -2.3348090  1.8589731 
C          2.1253446 -2.6292617  2.9356630 
C          2.2147040 -2.3563310  4.3392148 
C          1.1078489 -2.3018326  5.1529216 
H         -4.1758358  3.4720990  1.5296989 
H         -3.4736564  2.9262520 -0.6989493 
H          3.5037467  2.7465127 -0.7572481 
H          4.2699992  3.2550512  1.4595416 
H          3.4360253  3.9043676  4.0577072 
H          1.5064879  4.2980575  5.4490636 
H         -1.3038193  4.3868708  5.4716526 
H         -3.2734011  4.0991080  4.1115983 
H         -3.5189590 -1.6006858  4.8085544 
H         -1.5700233 -1.8106530  6.2100424 
H          1.2394854 -2.0112291  6.1873930 
H          3.1788219 -2.1017019  4.7593302 
H          4.0409372 -2.0748209  2.0828769 
H          3.2967316 -1.9363549 -0.1948769 
H         -3.6703710 -1.3951170 -0.1468824 
H         -4.3911358 -1.4093735  2.1414414 
H          2.4394604  2.2454744 -2.6756200 
H         -2.4732265  2.4231192 -2.6601197 
H          2.2538033 -1.7468264 -2.1900162 
H         -2.6532210 -1.4576480 -2.1844129 
H         -2.1414706  2.5403515 -5.7849438 
H         -3.4290232  1.1602249 -7.3781904 
H         -3.5428107 -1.2847777 -7.0782356 
H         -2.3694486 -2.3516546 -5.1850219 
H          2.1485136  2.3417901 -5.7661063 
H          3.3238871  0.8495092 -7.3442120 
H          3.2112230 -1.5958868 -7.0431408 
H          1.9218282 -2.5486098 -5.1642741 
C          1.4747648  0.7318438  1.6977993 
C          0.4498797  0.7008436  0.7690647 
C         -0.8596777  0.8143031  1.1945713 
C         -1.1433596  0.9588601  2.5406047 
C         -0.1241207  0.9912480  3.4799133 
C          1.1887370  0.8754662  3.0407442 
H          1.9918457  0.8984699  3.7634512 
H         -1.6633449  0.7900217  0.4741595 
H         -2.1706209  1.0471723  2.8639473 
H          2.4999795  0.6429000  1.3720628 
H          0.6697952  0.5874986 -0.2813368 
C         -0.4113332  1.1488734  4.9411543 
H         -1.4812715  1.2049762  5.1226028 
H          0.0574989  2.0559924  5.3178031 
H         -0.0036160  0.3057116  5.4954061 
H         -1.5664923 -5.5005606 -0.5544464 
H         -0.3530938 -4.8458146 -2.5894139 
H         -1.5217572 -5.8182086  1.8593295 
C         -0.4853998 -5.5068840 -0.5608292 
C          0.1965901 -5.1386483 -1.7061561 
C         -0.5363309 -6.2776302  1.8285576 
C          0.2024505 -5.8733763  0.5893760 
H         -0.6646481 -7.3607299  1.8515102 
H          0.0151832 -5.9841638  2.7192342 
C          1.5806134 -5.1361054 -1.7189790 
H          2.1141441 -4.8434025 -2.6115375 
C          1.5913711 -5.8709730  0.5633170 
C          2.2763604 -5.5043385 -0.5807304 
H          2.1399939 -6.1483350  1.4525323 
H          3.3569894 -5.5015584 -0.5821109 
