96

C          2.3044661 -1.3340367 -4.8021086 
C          1.5732504 -0.6439032 -3.8241903 
C          1.5587883  0.7650446 -3.8303855 
C          2.2740226  1.4639705 -4.8135574 
C          2.9973250  0.7682075 -5.7848823 
C          3.0125955 -0.6303870 -5.7788971 
C          0.7963862  1.5182316 -2.8078594 
C          1.4778550  2.2495910 -1.8381819 
C          0.7928184  2.9524001 -0.8296724 
C         -0.6468513  2.9018206 -0.8054661 
C         -1.3163381  2.1797452 -1.8110308 
C         -0.6184995  1.4935300 -2.8016263 
C          1.5444363  3.7174675  0.1795951 
C          0.7943285  4.0842071  1.2724626 
C         -0.6556554  4.0149774  1.3071949 
C         -1.4179212  3.5818823  0.2482335 
C         -1.1197295  4.9943742  2.2483598 
C          0.0267543  5.6705362  2.7979593 
C          1.2049498  5.1104653  2.1884460 
C         -0.0252625  6.9608532  3.2844852 
C         -1.3740234  7.4824561  3.4244291 
C         -2.4749499  6.8354049  2.9018847 
C         -2.3686003  5.5850721  2.1689592 
C         -3.2450310  4.9659008  1.1999108 
C         -2.7943107  4.0222525  0.2922302 
C          1.2700677  7.6150627  3.3547767 
C          2.4013133  7.0794502  2.7741542 
C          2.3830328  5.8219713  2.0455413 
C          3.2660291  5.2893916  1.0323644 
C          2.8678160  4.2981185  0.1507240 
C         -1.3667413  0.7299137 -3.8263962 
C         -1.3521986 -0.6787163 -3.8234873 
C         -2.0709615 -1.3822752 -4.8006959 
C         -2.7957879 -0.6908940 -5.7741423 
C         -2.8096558  0.7077635 -5.7767524 
C         -2.0987089  1.4165717 -4.8055828 
C          0.8268334 -1.4086054 -2.7978717 
C          1.5246936 -2.1181121 -1.8235059 
C          0.8556552 -2.8488666 -0.8241084 
C         -0.5856371 -2.8553559 -0.8166203 
C         -1.2702829 -2.1394435 -1.8161920 
C         -0.5875335 -1.4245777 -2.7975496 
C         -1.3412254 -3.5932610  0.2096952 
C         -0.5750442 -4.0199330  1.2684193 
C          0.8766168 -4.0238348  1.2565897 
C          1.6265300 -3.5964468  0.1853670 
C          1.3191993 -5.0514723  2.1559255 
C          0.1578861 -5.6777183  2.7326881 
C         -1.0089813 -5.0399444  2.1804682 
C         -2.6984571 -4.0921725  0.2258222 
C         -3.1198714 -5.0762446  1.1042083 
C         -2.2297637 -5.6816109  2.0696441 
C         -2.2905432 -6.9525203  2.7717070 
C         -1.1696958 -7.5632910  3.2960588 
C          0.1564500 -6.9798943  3.1894994 
C          2.9760860 -4.1155042  0.1671233 
C          3.4044482 -5.1086883  1.0321693 
C          2.5305051 -5.7054723  2.0173020 
C          2.5938789 -6.9777387  2.7169167 
C          1.4788034 -7.5768555  3.2662056 
H         -4.2805540  5.3014073  1.1622132 
H         -3.4820686  3.6248936 -0.4532446 
H          3.5534933  3.9703496 -0.6293793 
H          4.2584696  5.7280846  0.9402658 
H          3.3431327  7.6250122  2.8116914 
H          1.3185370  8.5839062  3.8497207 
H         -1.4930974  8.4427472  3.9242142 
H         -3.4632813  7.2841794  2.9900145 
H         -3.2590435 -7.4462070  2.8344122 
H         -1.2535752 -8.5391948  3.7714655 
H          1.5631431 -8.5537741  3.7395898 
H          3.5584043 -7.4812987  2.7578130 
H          4.4172233 -5.4995629  0.9472776 
H          3.6591698 -3.7370235 -0.5916736 
H         -3.3951814 -3.7008117 -0.5138781 
H         -4.1401715 -5.4515574  1.0471843 
H          2.5686201  2.2589808 -1.8492946 
H         -2.4070595  2.1385954 -1.8048891 
H          2.6147531 -2.0879187 -1.8228460 
H         -2.3613259 -2.1299731 -1.8135938 
H         -2.1018604  2.5059030 -4.8073279 
H         -3.3728316  1.2457262 -6.5378144 
H         -3.3483528 -1.2426533 -6.5332305 
H         -2.0526099 -2.4716308 -4.7986414 
H          2.2539344  2.5532049 -4.8185892 
H          3.5471181  1.3160603 -6.5486769 
H          3.5745933 -1.1724691 -6.5380791 
H          2.3082924 -2.4236132 -4.7980920 
C          0.0919937  0.3491657  1.5035819 
C         -1.4240795  0.3044423  1.6879424 
H          0.3773797  0.7315913  0.4833300 
Cl         0.8444888 -1.2226586  1.7381614 
Cl         0.7925665  1.4545505  2.7089579 
Cl        -2.2039645  0.0030588  0.1115218 
H         -1.8276616  1.2783525  2.0784541 
Cl        -1.9334121 -0.9973148  2.7600800 
