103

C         -6.6273973 -1.2458722  2.7275785 
C         -6.6349097  0.1356716  2.7928756 
C         -5.6195335  0.8694757  2.1983129 
C         -4.5988768  0.2175916  1.5322749 
C         -4.5912269 -1.1848517  1.4675602 
C         -5.6034828 -1.9088828  2.0678672 
C         -3.4582507  0.8781036  0.8543079 
C         -3.4536429  0.9405910 -0.5460477 
C         -2.2950587  1.2990904 -1.2042020 
C         -1.0883481  1.4996410 -0.5308856 
C         -1.0929426  1.4355760  0.9027556 
C         -2.3037753  1.1769267  1.5489113 
C          0.1503983  1.4766628  1.6609436 
C          1.2533388  1.8256475  0.9193609 
C          1.2564841  1.8906908 -0.5003317 
C          0.1579899  1.6103451 -1.2753237 
C          2.5755655  1.6682016 -0.9372205 
C          2.8898355  1.1483294 -2.1786382 
C          1.7666489  1.0368654 -3.0517416 
C          0.4755526  1.2507159 -2.6199064 
C          2.5706333  1.5629210  1.3407504 
C          2.8784886  0.9272567  2.5292143 
C          1.7511008  0.7323381  3.3816585 
C          0.4614284  0.9891601  2.9667607 
C          3.3906298  1.4757771  0.1968616 
C          4.2128541  0.6027068 -2.2618418 
C          5.0081795  0.4222062 -1.1554435 
C          4.5706117  0.7612178  0.1665092 
C          4.2017247  0.3761064  2.5677218 
C          5.0023064  0.3004518  1.4535956 
C         -4.5901227  0.3437702 -1.2868969 
C         -5.6071751  1.0527326 -1.8978025 
C         -6.6190115  0.3750261 -2.5610522 
C         -6.6113112 -1.0068618 -2.6191154 
C         -5.5908750 -1.7262856 -2.0154677 
C         -4.5822025 -1.0587952 -1.3473944 
C         -3.4309685 -1.6928032 -0.6627624 
C         -3.4358594 -1.7561247  0.7363490 
C         -2.2639087 -2.0472403  1.4082532 
C         -1.0400896 -2.1270952  0.7449559 
C         -1.0347762 -2.0605910 -0.6878963 
C         -2.2539116 -1.9208413 -1.3499233 
C          0.2072674 -2.1568769  1.4986482 
C          1.3063128 -1.7833414  0.7635699 
C          1.3114983 -1.7163817 -0.6573020 
C          0.2179874 -2.0195430 -1.4319672 
C          2.6328620 -1.9237394 -1.0925976 
C          2.9478373 -2.4478499 -2.3330797 
C          1.8275428 -2.5719873 -3.2075318 
C          0.5327371 -2.3729039 -2.7765114 
C          2.6244885 -2.0310891  1.1872254 
C          2.9305714 -2.6690705  2.3755233 
C          1.8039495 -2.8740516  3.2263382 
C          0.5122613 -2.6347574  2.8064510 
C          3.4464587 -2.1115017  0.0440032 
C          4.2695601 -2.9958688 -2.4141877 
C          5.0607471 -3.1780412 -1.3054051 
C          4.6227082 -2.8329258  0.0145325 
C          4.2520444 -3.2223189  2.4147953 
C          5.0513069 -3.3000540  1.2995956 
H         -2.3037541  1.3395662 -2.2838518 
H         -2.3204278  1.1207543  2.6280424 
H         -0.3267893  1.0534643 -3.3172136 
H         -0.3440117  0.7243333  3.6378152 
H          1.9217200  0.6828064 -4.0621672 
H          1.9002501  0.2803559  4.3531000 
H          4.5656124  0.2380941 -3.2174395 
H          4.5496063 -0.0757626  3.4870791 
H          5.9594832 -0.0784031 -1.2768006 
H          5.9536444 -0.2084943  1.5323819 
H         -5.6101721  2.1322456 -1.8512458 
H         -5.6225850  1.9488204  2.2485575 
H         -7.4158033  0.9303927 -3.0337210 
H         -7.4342981  0.6470198  3.3088251 
H         -0.2714275 -2.5831483 -3.4683023 
H         -0.2968839 -2.9083984  3.4697046 
H          1.9874100 -2.9253608 -4.2175622 
H          1.9564766 -3.3205008  4.2000027 
H          4.6230204 -3.3622288 -3.3689643 
H          4.5988513 -3.6762352  3.3337277 
H          6.0113452 -3.6813372 -1.4233297 
H          6.0013683 -3.8121708  1.3769432 
H         -2.2576340 -1.8427166 -2.4279023 
H         -2.2754875 -2.0681899  2.4888310 
H         -5.5806351 -2.8058306 -2.0607963 
H         -5.5931352 -2.9881633  2.0167408 
H         -7.4020543 -1.5296952 -3.1368313 
H         -7.4209356 -1.8124460  3.1922798 
C          0.3219717  4.6889657 -2.4054516 
C         -0.8851598  4.6195198 -1.7319292 
C         -0.9018983  4.6765010 -0.3491367 
C          0.2825835  4.7993685  0.3540927 
C          1.5006853  4.8633253 -0.3109951 
C          1.5046210  4.8105397 -1.6992609 
H          2.4454675  4.8538337 -2.2299288 
H         -1.8405344  4.6172911  0.1832481 
H          0.2640717  4.8358604  1.4345152 
H          0.3432708  4.6418216 -3.4848651 
H         -1.8097382  4.5169664 -2.2812706 
C          2.7841400  4.9988619  0.4500237 
H          2.6824237  4.5977503  1.4558443 
H          3.0637735  6.0503864  0.5289695 
H          3.5902778  4.4729293 -0.0571944 
