118

C          2.1669231 -0.8167543 -4.4683299 
C          1.4032557 -0.1098618 -3.5487031 
C          1.3898075  1.2850077 -3.5979133 
C          2.1387236  1.9449243 -4.5633965 
C          2.8801209  1.2310811 -5.4873743 
C          2.8941791 -0.1526503 -5.4394293 
C          0.6239255  2.0543510 -2.5966344 
C          1.2883703  2.8173721 -1.6569177 
C          0.6183797  3.5375226 -0.6667383 
C         -0.8159596  3.5200587 -0.6708223 
C         -1.4643240  2.7813630 -1.6623303 
C         -0.7766097  2.0362812 -2.6001573 
C          1.3575154  4.3144619  0.3184974 
C          0.5928230  4.7782789  1.3627378 
C         -0.8299482  4.7657527  1.3560091 
C         -1.5776624  4.2856931  0.3066417 
C         -1.2736232  5.8119026  2.1884622 
C         -0.1401302  6.4681486  2.7135454 
C          1.0097985  5.8316316  2.1998804 
C         -0.1538019  7.7922330  3.1050825 
C         -1.4618501  8.3758630  3.1463185 
C         -2.5672321  7.7386518  2.6363316 
C         -2.4930522  6.4446748  2.0250578 
C         -3.3484542  5.8132974  1.0732323 
C         -2.9105550  4.7931854  0.2563116 
C          1.1431674  8.3988208  3.1593344 
C          2.2645352  7.7811252  2.6601961 
C          2.2191763  6.4861947  2.0482565 
C          3.0946119  5.8706203  1.1042582 
C          2.6818854  4.8447502  0.2817085 
C         -1.5161903  1.2550345 -3.6126117 
C         -1.5025354 -0.1402546 -3.5736452 
C         -2.2402622 -0.8561785 -4.5073680 
C         -2.9680483 -0.2000312 -5.4833839 
C         -2.9809651  1.1840203 -5.5216594 
C         -2.2658147  1.9061896 -4.5835470 
C          0.6490600 -0.8282190 -2.5007755 
C          1.3224077 -1.5121408 -1.5087248 
C          0.6607000 -2.1955665 -0.4892202 
C         -0.7716454 -2.2274129 -0.5141667 
C         -1.4281156 -1.5606529 -1.5478763 
C         -0.7509333 -0.8485933 -2.5176947 
C         -1.5237532 -2.9617577  0.4932243 
C         -0.7776129 -3.3444120  1.5809590 
C          0.6423140 -3.3029496  1.6109722 
C          1.4092483 -2.8832908  0.5519214 
C          1.0808603 -4.2677083  2.5368334 
C         -0.0542600 -4.9046999  3.0817313 
C         -1.1997095 -4.3352215  2.4867223 
C         -2.8385222 -3.5150278  0.4665210 
C         -3.2554904 -4.4874712  1.3514083 
C         -2.3958926 -5.0180251  2.3599692 
C         -2.4349042 -6.2611795  3.0736771 
C         -1.3166704 -6.8157597  3.6493620 
C         -0.0280693 -6.1912225  3.5815661 
C          2.7537437 -3.3585579  0.5842507 
C          3.1887147 -4.3018418  1.4907571 
C          2.3184859 -4.8809931  2.4630449 
C          2.3982207 -6.1205792  3.1791096 
C          1.2899491 -6.7402337  3.7064986 
H         -4.3435926  6.2086285  0.9198200 
H         -3.5845583  4.4324522 -0.5083512 
H          3.3695723  4.4970600 -0.4768058 
H          4.0843979  6.2829692  0.9613304 
H          3.1972954  8.3289843  2.6477731 
H          1.2276669  9.4134279  3.5249836 
H         -1.5678174  9.3888014  3.5110008 
H         -3.5093611  8.2699510  2.6147112 
H         -3.3574949 -6.8264852  3.0831981 
H         -1.3951373 -7.7991758  4.0931894 
H          1.4059330 -7.7182120  4.1540986 
H          3.3505355 -6.6318972  3.2288247 
H          4.1984388 -4.6805595  1.4010879 
H          3.4451523 -3.0377438 -0.1824022 
H         -3.5137515 -3.2326757 -0.3293460 
H         -4.2360824 -4.9246395  1.2163523 
H          2.3692961  2.8274010 -1.6717641 
H         -2.5448568  2.7590377 -1.6763576 
H          2.4025155 -1.4840724 -1.5032223 
H         -2.5085845 -1.5701941 -1.5744418 
H         -2.2779579  2.9869031 -4.6015692 
H         -3.5524548  1.7006072 -6.2787079 
H         -3.5296443 -0.7676968 -6.2108279 
H         -2.2324673 -1.9357771 -4.4652039 
H          2.1292989  3.0255228 -4.5886500 
H          3.4508870  1.7538985 -6.2407059 
H          3.4762046 -0.7140091 -6.1556186 
H          2.1802228 -1.8959151 -4.4194759 
C          2.1880739 -0.0435251  2.1598712 
C          1.4604626  0.5587968  1.1487404 
C          0.0780160  0.5163425  1.1817914 
C         -0.5707959 -0.1233844  2.2219835 
C          0.1486201 -0.7332727  3.2417355 
C          1.5361942 -0.6842105  3.1976962 
H          2.1097572 -1.1607834  3.9804556 
H         -0.4948137  0.9762049  0.3901459 
H         -1.6513457 -0.1568395  2.2394371 
H          3.2683053 -0.0187825  2.1384883 
H          1.9649790  1.0540113  0.3328452 
C         -0.5522693 -1.4177243  4.3757714 
H         -1.5566497 -1.7184501  4.0868168 
H         -0.6308870 -0.7419022  5.2284923 
H          0.0002291 -2.2988489  4.6954513 
C         -1.1772371 -4.5811251 -2.8401470 
C          0.0119783 -4.1207483 -3.3767699 
C          1.2110531 -4.5070914 -2.8044752 
C          1.2197640 -5.3509129 -1.7089500 
C          0.0318848 -5.8227354 -1.1664918 
C         -1.1661265 -5.4261224 -1.7452964 
H         -2.0978233 -5.7852723 -1.3319002 
H          2.1467751 -4.1546303 -3.2141430 
H          2.1590624 -5.6503379 -1.2662093 
H         -2.1201730 -4.2861438 -3.2779169 
H          0.0041617 -3.4622450 -4.2333133 
C          0.0457058 -6.7718415 -0.0085182 
H          0.9029126 -6.5868318  0.6342139 
H          0.1094967 -7.7989168 -0.3706686 
H         -0.8618694 -6.6773365  0.5825258 
