118

C          2.0908807 -1.8052467 -5.2846539 
C          1.3454420 -1.0599596 -4.3799764 
C          1.2474236  0.3226513 -4.5454058 
C          1.8969559  0.9309132 -5.6123393 
C          2.6200655  0.1780146 -6.5192254 
C          2.7172942 -1.1934576 -6.3550440 
C          0.5014712  1.1496032 -3.5749327 
C          1.1745587  2.0691031 -2.7931007 
C          0.5229082  2.9025228 -1.8821693 
C         -0.9035879  2.7935943 -1.7670952 
C         -1.5624572  1.8777164 -2.5887954 
C         -0.8930039  1.0569013 -3.4759006 
C          1.2766946  3.8295694 -1.0474589 
C          0.4989161  4.7319848 -0.3607071 
C         -0.9126428  4.6114601 -0.2341539 
C         -1.6409129  3.5893625 -0.7947806 
C         -1.2938474  5.2538655  0.9589770 
C         -0.1339794  5.7728952  1.5699086 
C          0.9708177  5.4504943  0.7547930 
C         -0.0299315  5.9781233  2.9305342 
C         -1.2688031  5.8378965  3.6356657 
C         -2.4038287  5.3432855  3.0400507 
C         -2.4300055  4.9186216  1.6717675 
C         -3.2883587  4.0066211  0.9868634 
C         -2.9093851  3.3719437 -0.1772698 
C          1.3192393  6.0664126  3.4034098 
C          2.3983788  5.7608857  2.6098428 
C          2.2542670  5.3222946  1.2530437 
C          3.1184764  4.5483999  0.4216069 
C          2.6518811  3.8353928 -0.6626561 
C         -1.6529516  0.1375523 -4.3474974 
C         -1.5522583 -1.2453724 -4.1877414 
C         -2.3110317 -2.0837447 -4.9943780 
C         -3.1469252 -1.5613542 -5.9644247 
C         -3.2472802 -0.1894044 -6.1226976 
C         -2.5108431  0.6536365 -5.3107093 
C          0.7066765 -1.7260823 -3.2264863 
C          1.4867885 -2.2936043 -2.2377241 
C          0.9373223 -2.9029128 -1.1094664 
C         -0.4907177 -2.9838445 -1.0098397 
C         -1.2543573 -2.4643469 -2.0550776 
C         -0.6878640 -1.8162284 -3.1347938 
C         -1.1305431 -3.5991204  0.1444607 
C         -0.2835691 -3.8199970  1.2035261 
C          1.1328650 -3.7563182  1.0983961 
C          1.7937556 -3.4557875 -0.0683549 
C          1.6769992 -4.5952750  2.0890481 
C          0.6111056 -5.1725982  2.8111711 
C         -0.5972027 -4.6949667  2.2605481 
C         -2.4273138 -4.1705298  0.3058661 
C         -2.7401358 -5.0236957  1.3426164 
C         -1.7810321 -5.4074435  2.3274026 
C         -1.7252256 -6.5526213  3.1875310 
C         -0.5464733 -7.0168506  3.7205500 
C          0.7141920 -6.3881405  3.4573467 
C          3.1451792 -3.9112128 -0.1075147 
C          3.6805524 -4.7350742  0.8605117 
C          2.9163795 -5.1988196  1.9729694 
C          3.0909988 -6.3394952  2.8234551 
C          2.0508131 -6.9017788  3.5236308 
H         -4.2322664  3.7328538  1.4398964 
H         -3.5723302  2.6193359 -0.5815399 
H          3.3481628  3.1909799 -1.1818304 
H          4.1571569  4.4374989  0.7033351 
H          3.3854070  5.7652684  3.0527776 
H          1.4905137  6.2981216  4.4459030 
H         -1.2894316  6.0507264  4.6959794 
H         -3.2840705  5.1876620  3.6489811 
H         -2.6287163 -7.1251787  3.3499055 
H         -0.5596241 -7.9393205  4.2855474 
H          2.2295827 -7.8156858  4.0742131 
H          4.0556322 -6.8288025  2.8450628 
H          4.6838825 -5.1142408  0.7197732 
H          3.7553049 -3.6815479 -0.9702920 
H         -3.1763059 -4.0043258 -0.4559366 
H         -3.7167939 -5.4889145  1.3538746 
H          2.2471810  2.1490271 -2.9004083 
H         -2.6408527  1.8155415 -2.5414375 
H          2.5620008 -2.2222295 -2.3232041 
H         -2.3315164 -2.5263558 -1.9960059 
H         -2.5901518  1.7257734 -5.4231638 
H         -3.9030466  0.2236281 -6.8749650 
H         -3.7240351 -2.2237066 -6.5927750 
H         -2.2340295 -3.1532521 -4.8582110 
H          1.8234040  2.0029166 -5.7296187 
H          3.1119094  0.6613643 -7.3504868 
H          3.2854594 -1.7851974 -7.0576190 
H          2.1691271 -2.8741876 -5.1446036 
C          1.2095253  2.7534452  4.7451340 
C          1.7137114  2.6947275  3.4572623 
C          0.8555724  2.4682565  2.3971450 
C         -0.4966222  2.2909315  2.6231793 
C         -1.0102903  2.3260976  3.9109593 
C         -0.1422119  2.5684743  4.9686132 
H         -0.5304499  2.6056586  5.9772360 
H          1.2375112  2.4220289  1.3891224 
H         -1.1563933  2.1087206  1.7886597 
H          1.8728642  2.9376100  5.5783702 
H          2.7709796  2.8258552  3.2809867 
C         -2.4638933  2.0699370  4.1654159 
H         -2.6002022  1.0480101  4.5201318 
H         -3.0386591  2.1904837  3.2513694 
H         -2.8508294  2.7444077  4.9266703 
C         -0.2020515 -0.1287290  0.1904770 
C         -1.5826478 -0.2059859  0.2501837 
C         -2.1929669 -0.6854531  1.3949653 
C         -1.4262025 -1.0773507  2.4775593 
C         -0.0415784 -0.9976475  2.4321821 
C          0.5600033 -0.5229269  1.2734704 
H          1.6380364 -0.4641871  1.2223914 
H         -3.2703414 -0.7571037  1.4458799 
H         -1.9079231 -1.4589018  3.3670912 
H          0.2787217  0.2356272 -0.7054916 
H         -2.1746585  0.0987040 -0.5998059 
C          0.7883960 -1.3865251  3.6158796 
H          0.2755194 -2.1268237  4.2259584 
H          0.9786584 -0.5056306  4.2312057 
H          1.7470946 -1.7926221  3.3008287 
