176

C      1.2312440 -1.2944801 -0.9648715 
C      0.6220586 -0.6621128  0.1112203 
C      0.5367024  0.7285139  0.1358827 
C      1.0619604  1.4681838 -0.9157775 
C      1.6605681  0.8300885 -1.9852022 
C      1.7450803 -0.5506568 -2.0098007 
C     -0.0606911  1.4373932  1.2830299 
C      0.7373563  2.2295376  2.0836114 
C      0.2275679  2.9856656  3.1391401 
C     -1.1938681  2.9884386  3.3363873 
C     -1.9764491  2.1711513  2.5203822 
C     -1.4377714  1.3748895  1.5279237 
C      1.1050776  3.8149473  3.9526569 
C      0.4839449  4.4310815  5.0135133 
C     -0.9282589  4.4700829  5.1799254 
C     -1.8124969  3.8772938  4.3102508 
C     -1.2436636  5.6292830  5.9150162 
C     -0.0406474  6.3042803  6.2104673 
C      1.0239465  5.5635647  5.6556392 
C      0.0231253  7.6667426  6.4258822 
C     -1.2581214  8.2977919  6.5458136 
C     -2.4317732  7.6413169  6.2619285 
C     -2.4622839  6.2773130  5.8229728 
C     -3.4445467  5.5528531  5.0825616 
C     -3.1338357  4.4171097  4.3654331 
C      1.3316687  8.2234596  6.2509013 
C      2.3724151  7.5026164  5.7150985 
C      2.2254723  6.1426581  5.2893515 
C      2.9761954  5.3651603  4.3557607 
C      2.4417827  4.2650980  3.7215132 
C     -2.3272415  0.5442464  0.6929793 
C     -2.2413722 -0.8498227  0.6678211 
C     -3.1486186 -1.5720270 -0.0986580 
C     -4.1129536 -0.9315514 -0.8530768 
C     -4.1983320  0.4500731 -0.8278778 
C     -3.3182505  1.1765973 -0.0487413 
C      0.1185261 -1.4786596  1.2315209 
C      1.0092346 -2.1941203  2.0060891 
C      0.5979434 -3.0432445  3.0335229 
C     -0.8120242 -3.2275491  3.2269212 
C     -1.6904895 -2.4847835  2.4377389 
C     -1.2553190 -1.5942654  1.4750432 
C     -1.3149949 -4.2188362  4.1679802 
C     -0.3630983 -4.7280206  5.0189948 
C      1.0333170 -4.5099506  4.8576271 
C      1.5721214 -3.7859619  3.8201738 
C      1.7096069 -5.5889374  5.4616951 
C      0.7451176 -6.4736509  5.9879669 
C     -0.5323008 -5.9418979  5.7129099 
C     -2.5598272 -4.9185876  4.2011799 
C     -2.7273014 -6.1079779  4.8779699 
C     -1.6621072 -6.7312783  5.5954558 
C     -1.4633553 -8.0955462  5.9871105 
C     -0.2173788 -8.6121434  6.2511112 
C      0.9763128 -7.8245551  6.1563186 
C      2.9535751 -4.0601616  3.5768428 
C      3.6202989 -5.1074148  4.1741208 
C      2.9725168 -6.0029486  5.0785809 
C      3.2863233 -7.3484222  5.4574568 
C      2.3430498 -8.2098244  5.9654577 
H     -4.4449264  5.9570751  5.0041867 
H     -3.9075615  3.9776261  3.7511885 
H      3.0359038  3.7775057  2.9616180 
H      3.9642314  5.7009686  4.0700043 
H      3.3105679  8.0073124  5.5267635 
H      1.4837762  9.2723192  6.4674408 
H     -1.2976514  9.3520183  6.7849802 
H     -3.3579556  8.1997897  6.2862128 
H     -2.3137661 -8.7641816  5.9896898 
H     -0.1265233 -9.6708787  6.4535387 
H      2.6233212 -9.2388965  6.1459808 
H      4.2790625 -7.7271216  5.2540727 
H      4.6415552 -5.3092566  3.8792964 
H      3.4818173 -3.4773798  2.8355769 
H     -3.3828034 -4.5566335  3.6005001 
H     -3.6705175 -6.6291703  4.7832209 
H      1.7993158  2.2505357  1.8865453 
H     -3.0446101  2.1424494  2.6821582 
H      2.0653873 -2.0776817  1.8111643 
H     -2.7538296 -2.5931443  2.5975541 
H     -3.3769672  2.2540024 -0.0150954 
H     -4.9540437  0.9590619 -1.4080182 
H     -4.8015055 -1.5082628 -1.4531438 
H     -3.0742499 -2.6489897 -0.1040958 
H      0.9926047  2.5463168 -0.8856440 
H      2.0660134  1.4063323 -2.8003691 
H      2.2158704 -1.0439074 -2.8440768 
H      1.2940630 -2.3734046 -0.9730791 
H      4.3118166  1.6684580 -9.3343453 
H      4.4642445 -0.7996094 -9.3773579 
H      3.8854148 -3.0390553 -3.2678118 
C      3.6852625  1.0730459 -8.6867763 
C      3.7705856 -0.3086195 -8.7109038 
H      2.6555961  2.6361899 -5.0722272 
C      2.7978840  1.6901123 -7.8254478 
H      2.9477481 -2.1125788 -5.1560090 
C      2.9675526 -1.0597128 -7.8735422 
H      2.7299950  2.7686066 -7.7976508 
H      3.0327797 -2.1386551 -7.8834520 
C      1.5811982  2.5258549 -5.1301153 
C      1.9703223  0.9441655 -6.9925669 
C      2.0563105 -0.4505696 -7.0170434 
C      1.8678468 -2.1329014 -5.2125675 
C      1.0605118  1.6614334 -6.0758487 
C      1.1651411 -3.0028573 -4.3756644 
C      1.2431770 -1.3058729 -6.1283267 
C      0.7791407  3.2728737 -4.2642800 
C     -0.3302972  1.5552443 -6.2054262 
C     -0.2670921 -3.0211261 -4.4733819 
C     -0.1503759 -1.3666186 -6.2573849 
C     -0.6447693  3.1186524 -4.3640473 
C     -1.1464536  2.2708756 -5.3513543 
C     -0.8709152 -2.2068674 -5.4313050 
C     -0.9344818  0.7686503 -7.2986368 
C     -0.8487916 -0.6218207 -7.3234191 
C     -1.6371432  1.4284039 -8.3003884 
C     -1.4672479 -1.3269771 -8.3493875 
H     -1.7061794  2.5066343 -8.2692963 
H     -1.4032846 -2.4059245 -8.3566766 
H     -2.2172560  2.1825269 -5.4679164 
H     -1.9446820 -2.2465107 -5.5473247 
C     -2.2320674  0.7205435 -9.3279606 
C     -2.1468741 -0.6615537 -9.3526053 
C     -2.4431844 -3.7456929 -3.1912590 
H     -3.1036189 -3.0889614 -3.7400717 
H     -2.7663868  1.2454987 -10.1060455 
H     -2.6143353 -1.2202562 -10.1499405 
H      3.9466623  4.6596578 -1.0511611 
H      4.4851852 -4.1013458 -1.2056685 
C      2.9534883  4.7652444 -1.4665791 
H      2.7833092  5.7608344  1.2791584 
H      3.4770207  3.6036309 -3.1498844 
C      3.5116493 -4.3134620 -1.6267183 
H      3.4699590 -5.4153438  1.0828712 
C      2.6790463  4.1570480 -2.6740095 
C      3.1622891 -3.7022126 -2.8130807 
C      1.8731001  5.7553085  0.6957538 
C      1.9470281  5.4253790 -0.6981544 
C      2.5649290 -5.5018827  0.4978420 
C      2.5951286 -5.1180601 -0.8838304 
C      0.6801889  5.9719628  1.3435418 
C      1.3725688  4.1413897 -3.2534456 
H      0.6899320  6.1409649  2.4118927 
C      1.8625937 -3.8268963 -3.3945006 
C      1.4088015 -5.8853181  1.1350625 
C      0.7456634  5.5649385 -1.3679820 
H      1.4411632 -6.0880007  2.1970798 
C      1.4188032 -5.3809386 -1.5608489 
C      0.4680432  4.9467824 -2.6023967 
C      1.0650079 -4.7592965 -2.7739189 
C     -0.5823512  5.8821272  0.6717657 
C     -0.4766060  5.7870898 -0.7007971 
C      0.1436054 -5.9283332  0.4637202 
C      0.2342351 -5.7741810 -0.9045136 
C     -0.9415333  4.7852977 -2.6971921 
C     -0.3539443 -4.7687637 -2.8663791 
C     -1.5153520  5.3054181 -1.5217958 
C     -1.9065794  5.6550849  1.1682260 
C     -0.8573762 -5.3956236 -1.7108931 
C     -1.1974962 -5.8825974  0.9647110 
C     -1.5456245  3.8080800 -3.4502512 
H     -2.0917132  5.7795435  2.2265743 
C     -1.0747613 -3.8474950 -3.5864619 
H     -1.3638605 -6.0649728  2.0177489 
C     -2.7365143  4.8926283 -1.0229509 
C     -2.9227027  5.1879477  0.3677647 
C     -2.1189048 -5.1530494 -1.2009198 
C     -2.2648092 -5.5164821  0.1784090 
C     -2.8903012  3.5256626 -3.0613758 
C     -3.4606190  4.0484459 -1.9201327 
C     -2.9428827 -4.3735797 -2.0700533 
H     -3.8762564  4.9601358  0.8259816 
H     -3.2382132 -5.4231364  0.6419753 
H     -3.4665035  2.8122408 -3.6338348 
H     -4.4641521  3.7402782 -1.6582137 
H     -3.9760799 -4.1999811 -1.7999007 
