176

C      2.5100025  2.6882610 -6.9854320 
C      1.7181593  3.2835589 -5.9897473 
C      1.5742629  4.6833576 -5.9628071 
C      2.2217746  5.4674020 -6.9313522 
C      3.0047525  4.8663989 -7.9179875 
C      3.1492804  3.4749382 -7.9446202 
C      0.7508962  5.3593316 -4.9336833 
C      1.3685299  6.1755588 -3.9881263 
C      0.6254528  6.8734884 -3.0186906 
C     -0.8062693  6.7107971 -2.9938203 
C     -1.4082671  5.8691263 -3.9465754 
C     -0.6560072  5.2103771 -4.9167690 
C      1.3070729  7.7690471 -2.0682329 
C      0.5161629  8.1831473 -1.0220520 
C     -0.9252471  8.0139463 -0.9937646 
C     -1.6385673  7.4264682 -2.0120850 
C     -1.4715236  9.0444644 -0.1568271 
C     -0.3841230  9.8487046  0.3372260 
C      0.8399020  9.3171682 -0.2038401 
C     -0.5330023  11.1725224  0.6975627 
C     -1.9165103  11.6092292  0.7727745 
C     -2.9610633  10.8396348  0.3031666 
C     -2.7566562  9.5357559 -0.3048581 
C     -3.5717166  8.7679345 -1.2193999 
C     -3.0421321  7.7752964 -2.0265742 
C      0.7127524  11.9196497  0.7187372 
C      1.8878783  11.4120037  0.2037720 
C      1.9685205  10.0931756 -0.4011964 
C      2.9029237  9.5305742 -1.3500006 
C      2.5885517  8.4355245 -2.1374474 
C     -1.3440748  4.3866811 -5.9370558 
C     -1.1997317  2.9876593 -5.9687539 
C     -1.8685092  2.2441743 -6.9547278 
C     -2.6702410  2.8859055 -7.8998400 
C     -2.8132394  4.2774930 -7.8678122 
C     -2.1539297  5.0244491 -6.8904103 
C      1.0509178  2.4117695 -4.9952016 
C      1.8221719  1.6908051 -4.0853254 
C      1.2390108  0.8035201 -3.1620798 
C     -0.1976897  0.6699007 -3.1448918 
C     -0.9578920  1.4256953 -4.0556948 
C     -0.3560288  2.2731422 -4.9833143 
C     -0.8705204 -0.2625216 -2.2248994 
C     -0.0449569 -0.7700451 -1.2517869 
C      1.3994537 -0.6368378 -1.2668585 
C      2.0926658  0.0069927 -2.2628256 
C      1.9459869 -1.7218578 -0.5026193 
C      0.8548318 -2.5194773 -0.0069980 
C     -0.3720389 -1.9301160 -0.4734990 
C     -2.1819988 -0.8731898 -2.2532396 
C     -2.4994136 -1.9962446 -1.5067507 
C     -1.5403277 -2.6494899 -0.6430218 
C     -1.4758771 -3.9963338 -0.1014763 
C     -0.2944283 -4.5641792  0.3297276 
C      0.9757520 -3.8605888  0.2907230 
C      3.4858487 -0.3757633 -2.3412703 
C      4.0141897 -1.4303759 -1.6137703 
C      3.2124084 -2.2338524 -0.7170875 
C      3.3980696 -3.5727032 -0.1810574 
C      2.3490091 -4.3361325  0.2901933 
H     -4.6263723  9.0267461 -1.3015935 
H     -3.6878218  7.2652839 -2.7402861 
H      3.3076245  8.0848432 -2.8764966 
H      3.8638302  10.0277920 -1.4741263 
H      2.7889901  12.0235244  0.1982089 
H      0.6859409  12.9319920  1.1190221 
H     -2.1099836  12.6018429  1.1766487 
H     -3.9792313  11.2245549  0.3371110 
H     -2.3941221 -4.5805645 -0.0877698 
H     -0.2849076 -5.5982078  0.6740997 
H      2.5262943 -5.3556303  0.6338244 
H      4.4032227 -3.9885049 -0.2063939 
H      5.0578737 -1.7079887 -1.7475825 
H      4.1245275  0.1630565 -3.0386354 
H     -2.9289605 -0.4472889 -2.9204724 
H     -3.4882755 -2.4418707 -1.5953934 
H      2.4555102  6.2653072 -3.9952327 
H     -2.4882416  5.7178382 -3.9208849 
H      2.9044371  1.8230722 -4.0855940 
H     -2.0458614  1.3520946 -4.0305025 
H     -2.2564196  6.1086673 -6.8660710 
H     -3.4362912  4.7783562 -8.6068770 
H     -3.1821965  2.3029681 -8.6638777 
H     -1.7488964  1.1612458 -6.9796129 
H      2.1000036  6.5498160 -6.9118234 
H      3.4999061  5.4803054 -8.6684085 
H      3.7575770  3.0048306 -8.7157118 
H      2.6130555  1.6035072 -7.0074848 
C     -2.2224769 -5.4646060  6.9330159 
C     -1.5751036 -4.6810124  5.9640308 
C     -1.7194561 -3.2812189  5.9901248 
C     -2.5116463 -2.6855245  6.9852443 
C     -3.1507610 -3.4717947  7.9449066 
C     -3.0056994 -4.8631923  7.9192230 
C     -1.0521034 -2.4099551  4.9951809 
C     -1.8231294 -1.6899220  4.0844220 
C     -1.2396732 -0.8037982  3.1602173 
C      0.1970557 -0.6705775  3.1429270 
C      0.9569913 -1.4250314  4.0550963 
C      0.3548627 -2.2712440  4.9836274 
C     -2.0931143 -0.0080501  2.2600716 
C     -1.3997112  0.6343226  1.2633015 
C      0.0447606  0.7668668  1.2478690 
C      0.8702083  0.2601624  2.2214832 
C      0.3722427  1.9258634  0.4681272 
C     -0.8544298  2.5152283  0.0011428 
C     -1.9458484  1.7187132  0.4979167 
C     -0.9747379  3.8560211 -0.2982716 
C      0.2957761  4.5589225 -0.3383430 
C      1.4770198  3.9910010  0.0933379 
C      1.5409544  2.6448123  0.6365027 
C      2.4999106  1.9920461  1.5007542 
C      2.1820795  0.8701011  2.2486984 
C     -2.3478159  4.3321178 -0.2981603 
C     -3.3971891  3.5697417  0.1740864 
C     -3.2120553  2.2314735  0.7117852 
C     -4.0140990  1.4293980  1.6095052 
C     -3.4861185  0.3754301  2.3381985 
C      1.1980809 -2.9848689  5.9701280 
C      1.3428242 -4.3838821  5.9389415 
C      2.1517896 -5.0212730  6.8932518 
C      2.8098686 -4.2738898  7.8711922 
C      2.6664654 -2.8823378  7.9027428 
C      1.8655838 -2.2409960  6.9566193 
C     -0.7514382 -5.3571982  4.9352694 
C     -1.3686416 -6.1738220  3.9898436 
C     -0.6251919 -6.8717049  3.0206210 
C      0.8064448 -6.7084156  2.9956046 
C      1.4080398 -5.8663052  3.9482870 
C      0.6554692 -5.2078680  4.9183993 
C      1.6389953 -7.4243370  2.0142527 
C      0.9258454 -8.0132240  0.9966033 
C     -0.5154860 -8.1830167  1.0251328 
C     -1.3065305 -7.7682429  2.0709179 
C     -0.8388264 -9.3179219  0.2079745 
C      0.3853956 -9.8493835 -0.3327196 
C      1.4724930 -9.0441808  0.1604707 
C      3.0427937 -7.7723163  2.0285867 
C      3.5727492 -8.7654279  1.2222115 
C      2.7579342 -9.5346274  0.3086066 
C      2.9628855 -10.8389226 -0.2983707 
C      1.9186053 -11.6095019 -0.7669902 
C      0.5348698 -11.1734698 -0.6918342 
C     -2.5877642 -8.4351522  2.1408581 
C     -2.9016638 -9.5311491  1.3545623 
C     -1.9670491 -10.0942602  0.4062436 
C     -1.8858366 -11.4136662 -0.1973729 
C     -0.7105174 -11.9212452 -0.7120116 
H      3.4890438  2.4372549  1.5885398 
H      2.9289584  0.4445251  2.9162082 
H     -4.1249624 -0.1622721  3.0363274 
H     -5.0576373  1.7076279  1.7431445 
H     -4.4021549  3.9859749  0.1989410 
H     -2.5245829  5.3513281 -0.6429830 
H      0.2867287  5.5925608 -0.6838382 
H      2.3955498  4.5748405  0.0787950 
H      3.9812582 -11.2232378 -0.3323589 
H      2.1125261 -12.6023598 -1.1700430 
H     -0.6832655 -12.9339861 -1.1112310 
H     -2.7866238 -12.0256284 -0.1910156 
H     -3.8623453 -10.0286812  1.4792747 
H     -3.3069367 -8.0839643  2.8795770 
H      3.6884446 -7.2611410  2.7414987 
H      4.6276041 -9.0235076  1.3043978 
H     -2.9054137 -1.8220385  4.0845962 
H      2.0449656 -1.3514124  4.0302229 
H     -2.4556126 -6.2640553  3.9968270 
H      2.4879392 -5.7145194  3.9226122 
H      1.7456627 -1.1580863  6.9812209 
H      3.1774158 -2.2991050  8.6672720 
H      3.4321984 -4.7744463  8.6110265 
H      2.2544724 -6.1054760  6.8693133 
H     -2.6151118 -1.6008078  7.0065248 
H     -3.7592803 -3.0013687  8.7156162 
H     -3.5006391 -5.4767992  8.6700607 
H     -2.1004204 -6.5469991  6.9142053 
