88

C         2.1742496 -1.7635006 -4.4604346 
C         1.4503652 -0.9699473 -3.5587321 
C         1.4394728  0.4302503 -3.7139552 
C         2.1526429  1.0179399 -4.7688709 
C         2.8690792  0.2200194 -5.6637489 
C         2.8798701 -1.1701332 -5.5096272 
C         0.6826782  1.2894625 -2.7740376 
C         1.3722071  2.1152977 -1.8872722 
C         0.7046669  2.9452369 -0.9710611 
C        -0.7540782  2.9319743 -0.9599064 
C        -1.4203855  2.0916750 -1.8675506 
C        -0.7296009  1.2784095 -2.7648613 
C         1.5078918  3.7939755 -0.0577977 
C         0.6917720  4.5223713  0.7551407 
C        -0.7433507  4.5086543  0.7667433 
C        -1.5584669  3.7647943 -0.0331172 
C        -1.1779037  5.4185739  1.7678433 
C        -0.0268884  5.9959748  2.3761781 
C         1.1249707  5.4407930  1.7490261 
C        -0.0276235  6.9221408  3.3835135 
C        -1.4002547  7.2489253  3.7647737 
C        -2.5272488  6.6864628  3.1726420 
C        -2.4804706  5.6989116  2.0955561 
C        -3.3832323  4.9203497  1.2624652 
C        -2.9556868  4.0259426  0.2781649 
C         1.3444542  7.2760067  3.7417964 
C         2.4722797  6.7356055  3.1309598 
C         2.4270178  5.7467140  2.0550431 
C         3.3309003  4.9858307  1.2069577 
C         2.9046878  4.0826919  0.2300926 
C        -1.4847759  0.4097023 -3.6973482 
C        -1.4742271 -0.9907056 -3.5442213 
C        -2.1959867 -1.7932117 -4.4396379 
C        -2.9209122 -1.2084002 -5.4804572 
C        -2.9317663  0.1819999 -5.6322633 
C        -2.2174350  0.9887554 -4.7436339 
C         0.7057509 -1.6150384 -2.4524343 
C         1.4048433 -2.2116799 -1.4065201 
C         0.7373190 -2.8309889 -0.3330118 
C        -0.7033147 -2.8428428 -0.3269939 
C        -1.3899281 -2.2339394 -1.3943546 
C        -0.7095235 -1.6259170 -2.4460025 
C        -1.4557704 -3.4961723  0.7571261 
C        -0.6917665 -3.8247626  1.8522084 
C         0.7597436 -3.8125441  1.8463348 
C         1.5093118 -3.4712815  0.7451462 
C         1.2098838 -4.7587080  2.8284899 
C         0.0533115 -5.3531476  3.4469614 
C        -1.1180349 -4.7783717  2.8378031 
C        -2.8029554 -4.0214271  0.7979210 
C        -3.2165600 -4.9398560  1.7478665 
C        -2.3271113 -5.4477506  2.7682065 
C        -2.3763398 -6.6593192  3.5688855 
C        -1.2517666 -7.2084845  4.1497270 
C         0.0662042 -6.6148379  4.0062710 
C         2.8655382 -3.9734960  0.7753973 
C         3.3021818 -4.8845977  1.7220766 
C         2.4295382 -5.4074925  2.7493419 
C         2.5056287 -6.6179087  3.5496619 
C         1.3951374 -7.1860171  4.1393285 
H        -4.4520110  5.0496730  1.4251437 
H        -3.7086805  3.4863138 -0.2938800 
H         3.6585075  3.5580709 -0.3546876 
H         4.3994768  5.1366376  1.3513838 
H         3.4577396  7.0583458  3.4634514 
H         1.4748274  8.0082296  4.5371229 
H        -1.5317398  7.9781980  4.5626249 
H        -3.5131980  6.9894063  3.5219392 
H        -3.3380485 -7.1614880  3.6622791 
H        -1.3252259 -8.1445647  4.7010735 
H         1.4887882 -8.1206162  4.6901243 
H         3.4764428 -7.1035986  3.6355943 
H         4.3198746 -5.2688194  1.6744642 
H         3.5469861 -3.6521506 -0.0109402 
H        -3.4958494 -3.7119146  0.0168608 
H        -4.2278353 -5.3415287  1.7080584 
H         2.4632245  2.1084533 -1.9005386 
H        -2.5112057  2.0664595 -1.8655597 
H         2.4950234 -2.1809068 -1.4116174 
H        -2.4804624 -2.2204754 -1.3899252 
H        -2.2178605  2.0718134 -4.8620919 
H        -3.4949560  0.6370253 -6.4456471 
H        -3.4754536 -1.8367509 -6.1756911 
H        -2.1794675 -2.8760528 -4.3216891 
H         2.1362520  2.1006872 -4.8890433 
H         3.4170420  0.6816798 -6.4837669 
H         3.4361648 -1.7916584 -6.2095798 
H         2.1744700 -2.8462838 -4.3406802 
