176

C      1.0915807 -1.3241404 -0.9364879 
C      0.5538361 -0.6765044  0.1847721 
C      0.4679894  0.7268491  0.2101417 
C      0.9205188  1.4752039 -0.8857802 
C      1.4572714  0.8230507 -1.9966955 
C      1.5424327 -0.5718081 -2.0219898 
C     -0.1202099  1.4310202  1.3708072 
C      0.6955006  2.1794267  2.2126824 
C      0.1596299  2.9335518  3.2743061 
C     -1.2684289  2.9477266  3.4572101 
C     -2.0680935  2.1293017  2.6357301 
C     -1.5150580  1.3702343  1.6089228 
C      1.0480539  3.7467626  4.1192027 
C      0.4211955  4.3565796  5.1801661 
C     -1.0207733  4.4125436  5.3309670 
C     -1.8988765  3.8460118  4.4373497 
C     -1.3368753  5.5935116  6.0850674 
C     -0.1052600  6.2637978  6.4127074 
C      0.9779374  5.4987178  5.8523476 
C     -0.0272469  7.6239834  6.6350501 
C     -1.3197584  8.2761829  6.7542815 
C     -2.5015921  7.6359095  6.4433109 
C     -2.5428425  6.2623552  5.9713361 
C     -3.5382014  5.5447203  5.2065421 
C     -3.2325514  4.4055373  4.4821835 
C      1.3113395  8.1683324  6.4911739 
C      2.3528812  7.4364272  5.9584598 
C      2.1882580  6.0685005  5.4991117 
C      2.9541268  5.2760730  4.5619745 
C      2.4143203  4.1805558  3.9123979 
C     -2.3891494  0.5426164  0.7458874 
C     -2.3029985 -0.8623011  0.7210832 
C     -3.1480978 -1.5911829 -0.1302881 
C     -4.0615362 -0.9360849 -0.9568501 
C     -4.1470837  0.4601201 -0.9322784 
C     -3.3186827  1.1923715 -0.0812419 
C      0.0589182 -1.4880674  1.3185376 
C      0.9621998 -2.1598232  2.1353270 
C      0.5253129 -3.0089573  3.1701539 
C     -0.8898526 -3.2036955  3.3504301 
C     -1.7856874 -2.4622700  2.5555787 
C     -1.3322455 -1.6065496  1.5562766 
C     -1.4031049 -4.2033247  4.3004448 
C     -0.4601248 -4.6852490  5.1774283 
C      0.9637891 -4.4485260  5.0304207 
C      1.5086987 -3.7341388  3.9896718 
C      1.6577883 -5.5337999  5.6681346 
C      0.6778077 -6.4423692  6.2036593 
C     -0.6273936 -5.9184023  5.8947260 
C     -2.6578613 -4.9234549  4.3258212 
C     -2.8199597 -6.1130688  5.0146738 
C     -1.7426192 -6.7261729  5.7590291 
C     -1.5323402 -8.0978964  6.1895728 
C     -0.2802825 -8.5976406  6.4828299 
C      0.9223842 -7.7888006  6.3849813 
C      2.9171071 -3.9912487  3.7710785 
C      3.5885349 -5.0318470  4.3874514 
C      2.9278966 -5.9400654  5.2992583 
C      3.2599716 -7.2907358  5.7173738 
C      2.3172586 -8.1604100  6.2265218 
H     -4.5460363  5.9556781  5.1704776 
H     -4.0053333  3.9306138  3.8796788 
H      3.0137933  3.6381673  3.1823910 
H      3.9712022  5.5935152  4.3383946 
H      3.3305212  7.8976530  5.8258517 
H      1.4664179  9.2074651  6.7778071 
H     -1.3301574  9.3218565  7.0583234 
H     -3.4455566  8.1758698  6.5026712 
H     -2.4029183 -8.7509274  6.2314751 
H     -0.1618326 -9.6453189  6.7554433 
H      2.5992165 -9.1808150  6.4820530 
H      4.2864333 -7.6244652  5.5721831 
H      4.6361656 -5.2156283  4.1552713 
H      3.4438412 -3.3576853  3.0585984 
H     -3.4843093 -4.5289749  3.7366198 
H     -3.7698486 -6.6432751  4.9642856 
H      1.7721841  2.1853818  2.0394901 
H     -3.1431293  2.0859258  2.8112939 
H      2.0310731 -2.0285269  1.9634392 
H     -2.8575028 -2.5568141  2.7306388 
H     -3.3681173  2.2806509 -0.0620817 
H     -4.8530503  0.9752612 -1.5804687 
H     -4.7007778 -1.5104509 -1.6242308 
H     -3.0643272 -2.6773545 -0.1494638 
H      0.8352323  2.5629039 -0.8690105 
H      1.8002098  1.3992943 -2.8546017 
H      1.9509067 -1.0706564 -2.8994424 
H      1.1394346 -2.4140017 -0.9591681 
H      4.1012953  1.6735000 -9.8253802 
H      4.2527460 -0.8113654 -9.8710541 
H      3.9747636 -2.8830746 -3.5047991 
C      3.5210993  1.0786931 -9.1214151 
C      3.6062311 -0.3175670 -9.1470447 
H      2.7126587  2.5610697 -5.2951480 
C      2.6882766  1.7095911 -8.1963394 
H      2.9936919 -2.0238913 -5.3782106 
C      2.8583681 -1.0783476 -8.2474474 
H      2.6121888  2.7967640 -8.1801204 
H      2.9149687 -2.1665804 -8.2711303 
C      1.6264065  2.4766640 -5.3468149 
C      1.9309855  0.9525763 -7.2872491 
C      2.0168238 -0.4526657 -7.3129215 
C      1.9051511 -2.0711739 -5.4291904 
C      1.0571895  1.6666001 -6.3269578 
C      1.2107432 -2.9146086 -4.5403142 
C      1.2389714 -1.3022269 -6.3808932 
C      0.8359874  3.1965581 -4.4299501 
C     -0.3516551  1.5684184 -6.4186854 
C     -0.2276294 -2.9629893 -4.6148899 
C     -0.1715195 -1.3738833 -6.4721078 
C     -0.5976562  3.0710674 -4.5058172 
C     -1.1522978  2.2543831 -5.5090602 
C     -0.8802042 -2.1849553 -5.5895606 
C     -0.9881052  0.7765561 -7.4961833 
C     -0.9022611 -0.6271886 -7.5216548 
C     -1.6880706  1.4484491 -8.5110288 
C     -1.5174035 -1.3422087 -8.5616721 
H     -1.7457872  2.5364790 -8.4912938 
H     -1.4421173 -2.4291682 -8.5814020 
H     -2.2366935  2.1612141 -5.5820271 
H     -1.9679994 -2.2226786 -5.6616020 
C     -2.2951007  0.7301085 -9.5423579 
C     -2.2096760 -0.6663613 -9.5677187 
C     -2.4030268 -3.7163814 -3.2789387 
H     -3.0821936 -3.1193276 -3.8857654 
H     -2.8325188  1.2575602 -10.3291087 
H     -2.6804923 -1.2265658 -10.3742415 
H      4.1258717  4.4495357 -1.2028643 
H      4.6362432 -3.8670988 -1.3520931 
C      3.1177020  4.5467127 -1.6024588 
H      3.0264346  5.4810380  1.1866792 
H      3.5852414  3.4671809 -3.3897771 
C      3.6467146 -4.0730575 -1.7569857 
H      3.6763772 -5.1074896  0.9978706 
C      2.8102070  3.9925330 -2.8336647 
C      3.2710681 -3.5183185 -2.9688673 
C      2.0833686  5.4894360  0.6434611 
C      2.1256849  5.2044352 -0.7810126 
C      2.7402442 -5.2123569  0.4527174 
C      2.7443768 -4.8753133 -0.9609734 
C      0.9019807  5.7165085  1.3189312 
C      1.4751868  4.0249161 -3.3925237 
H      0.9106046  5.8819034  2.3980096 
C      1.9488268 -3.6944201 -3.5313067 
C      1.5969246 -5.6053841  1.1174398 
C      0.9208827  5.4127210 -1.4281660 
H      1.6280086 -5.8054315  2.1902137 
C      1.5727814 -5.2070100 -1.6175454 
C      0.6024679  4.8333522 -2.7033012 
C      1.1831254 -4.6271264 -2.8725215 
C     -0.3908852  5.6847375  0.6577520 
C     -0.3097252  5.6499148 -0.7194448 
C      0.3085373 -5.7093730  0.4549161 
C      0.3819465 -5.6174330 -0.9200956 
C     -0.8409294  4.7058076 -2.7813189 
C     -0.2651854 -4.6746761 -2.9492264 
C     -1.3947228  5.2138911 -1.5572815 
C     -1.7315487  5.4736321  1.1736006 
C     -0.7500181 -5.2889581 -1.7447588 
C     -1.0468275 -5.6820359  0.9748391 
C     -1.4787448  3.7608853 -3.5489602 
H     -1.8830090  5.5987477  2.2474572 
C     -1.0155590 -3.7888888 -3.6849570 
H     -1.1795615 -5.8614603  2.0434418 
C     -2.6150483  4.8057164 -1.0498070 
C     -2.7770196  5.0634735  0.3710426 
C     -2.0101559 -5.0513677 -1.2261739 
C     -2.1363817 -5.3759116  0.1845679 
C     -2.8458380  3.5045442 -3.1483963 
C     -3.3879330  4.0096022 -1.9789563 
C     -2.8767538 -4.3244502 -2.1290126 
H     -3.7546317  4.8754975  0.8111565 
H     -3.1287837 -5.3246988  0.6287259 
H     -3.4479567  2.8499528 -3.7768329 
H     -4.4175680  3.7737283 -1.7150431 
H     -3.9270563 -4.2261490 -1.8595065 
