96

C          2.2450324 -1.8215402 -4.8909387 
C          1.5197260 -0.9717797 -4.0454575 
C          1.5024412  0.4158775 -4.2974576 
C          2.2094758  0.9350178 -5.3894922 
C          2.9262351  0.0791872 -6.2305691 
C          2.9437692 -1.2965468 -5.9816536 
C          0.7469376  1.3216994 -3.4023922 
C          1.4338594  2.1557260 -2.5271428 
C          0.7509545  2.9629881 -1.5952664 
C         -0.6874291  2.9544775 -1.5938741 
C         -1.3644232  2.1365432 -2.5206024 
C         -0.6702643  1.3104267 -3.3972626 
C          1.5065994  3.7099631 -0.5790696 
C          0.7489038  4.5636708  0.1896050 
C         -0.7031064  4.5505067  0.1924494 
C         -1.4512575  3.6903081 -0.5770624 
C         -1.1448355  5.0103010  1.4812828 
C          0.0185985  5.3112159  2.2755638 
C          1.1855426  5.0335344  1.4765213 
C          0.0204953  5.2272348  3.6545205 
C         -1.2956201  5.0627044  4.2442146 
C         -2.4120336  4.7802127  3.4856217 
C         -2.3496179  4.6245109  2.0438485 
C         -3.2296880  3.9250364  1.1350154 
C         -2.8024537  3.4814942 -0.1031310 
C          1.3402156  5.0860575  4.2421270 
C          2.4594565  4.8239931  3.4806646 
C          2.3965129  4.6660574  2.0385316 
C          3.2812472  3.9675399  1.1336060 
C          2.8578399  3.5131184 -0.1017732 
C         -1.4222137  0.3841510 -4.2732248 
C         -1.4062993 -1.0003702 -4.0059724 
C         -2.1350727 -1.8733765 -4.8243267 
C         -2.8688195 -1.3739252 -5.9040146 
C         -2.8823251 -0.0011377 -6.1691962 
C         -2.1630568  0.8777631 -5.3544725 
C          0.7852235 -1.5296357 -2.8866039 
C          1.4965384 -2.0284173 -1.7986012 
C          0.8386175 -2.5115058 -0.6518815 
C         -0.6013623 -2.4939615 -0.6179729 
C         -1.3012008 -2.0149452 -1.7419735 
C         -0.6302922 -1.5325813 -2.8623021 
C         -1.3418176 -2.9710738  0.5602116 
C         -0.5604370 -3.1660474  1.6749316 
C          0.8902219 -3.1980286  1.6371019 
C          1.6204617 -3.0288355  0.4833299 
C          1.3396888 -4.0144395  2.7288262 
C          0.1830140 -4.4826147  3.4476422 
C         -0.9876386 -3.9583269  2.7932173 
C         -2.7036417 -3.4357304  0.7034266 
C         -3.1190202 -4.1993041  1.7810316 
C         -2.2168070 -4.5922621  2.8402227 
C         -2.2787313 -5.6865179  3.7936828 
C         -1.1545234 -6.1901429  4.4155623 
C          0.1746661 -5.6607138  4.1666274 
C          2.9617043 -3.5640858  0.5486418 
C          3.3963225 -4.3557529  1.5984563 
C          2.5371152 -4.7076736  2.7065449 
C          2.5990464 -5.8061860  3.6553360 
C          1.4885382 -6.2549933  4.3403182 
H         -4.2416710  3.7059098  1.4715167 
H         -3.4778513  2.9019924 -0.7328343 
H          3.5391641  2.9364008 -0.7259984 
H          4.2909550  3.7468677  1.4765934 
H          3.4237657  4.6703483  3.9625287 
H          1.4182816  5.1408840  5.3267091 
H         -1.3724494  5.1165238  5.3291441 
H         -3.3730079  4.6145590  3.9697307 
H         -3.2503259 -6.1437243  3.9721288 
H         -1.2388807 -7.0451265  5.0838316 
H          1.5685256 -7.1142903  5.0036632 
H          3.5556577 -6.3106268  3.7788913 
H          4.3992794 -4.7780778  1.5781609 
H          3.6273720 -3.3716523 -0.2911979 
H         -3.4056329 -3.2053137 -0.0963906 
H         -4.1424634 -4.5668710  1.8214962 
H          2.5250028  2.1692470 -2.5459409 
H         -2.4561313  2.1304115 -2.5285061 
H          2.5871019 -2.0223534 -1.8241550 
H         -2.3924557 -1.9994095 -1.7225554 
H         -2.1710025  1.9473427 -5.5596556 
H         -3.4523006  0.3852379 -7.0121210 
H         -3.4288804 -2.0567884 -6.5402788 
H         -2.1214712 -2.9427468 -4.6180778 
H          2.1927245  2.0067939 -5.5827262 
H          3.4695118  0.4858572 -7.0815326 
H          3.5007323 -1.9617009 -6.6390274 
H          2.2557498 -2.8932500 -4.6971254 
C          0.0180500  1.1001605  1.4094150 
C         -1.4825959  0.8192315  1.4538676 
H          0.3181406  1.5977544  0.4450887 
Cl         0.9734482 -0.3639189  1.6045568 
Cl         0.4415000  2.2082471  2.7354840 
Cl        -2.0456924  0.4099722 -0.1895873 
H         -2.0623086  1.7201741  1.7973298 
Cl        -1.8807235 -0.5499093  2.4878750 
