158

C          1.4732605 -1.3241029 -7.1997974 
C          0.7973108 -0.6835744 -6.1455111 
C          0.6653680  0.7150459 -6.1560032 
C          1.2111224  1.4551210 -7.2204592 
C          1.8758669  0.8111093 -8.2633281 
C          2.0072964 -0.5825841 -8.2529643 
C         -0.0292677  1.4595824 -5.0816359 
C          0.7001174  2.3585426 -4.3036010 
C          0.0772986  3.1823415 -3.3495570 
C         -1.3471994  3.0644330 -3.1574984 
C         -2.0564813  2.1210999 -3.9216867 
C         -1.4236284  1.3345924 -4.8843560 
C          0.8686274  4.1761820 -2.6056908 
C          0.1916955  4.7634013 -1.5634636 
C         -1.2418898  4.6492736 -1.3745519 
C         -2.0651281  3.9396833 -2.2158716 
C         -1.6806483  5.7961524 -0.6340679 
C         -0.5336022  6.6226673 -0.3627423 
C          0.6193590  5.9831740 -0.9409050 
C         -0.6209415  7.9874973 -0.1798182 
C         -1.9819952  8.4745769 -0.0345017 
C         -3.0833581  7.6815832 -0.2857826 
C         -2.9662706  6.2999572 -0.7204126 
C         -3.8833503  5.4358241 -1.4295100 
C         -3.4570017  4.3226576 -2.1354954 
C          0.6341863  8.6889507 -0.3869596 
C          1.7429970  8.0765712 -0.9353604 
C          1.7389766  6.6844486 -1.3515632 
C          2.5645975  5.9624768 -2.2940242 
C          2.1528365  4.7793794 -2.8853092 
C         -2.2448081  0.4442394 -5.7355660 
C         -2.1128249 -0.9547107 -5.7219207 
C         -2.9319703 -1.7358965 -6.5574496 
C         -3.8664328 -1.1334910 -7.3988488 
C         -3.9976216  0.2601328 -7.4125616 
C         -3.1936690  1.0425558 -6.5845930 
C          0.2531866 -1.5289079 -5.0589808 
C          1.1370885 -2.2686714 -4.2736195 
C          0.6787777 -3.1831279 -3.3087896 
C         -0.7425465 -3.3243610 -3.1092022 
C         -1.6147824 -2.5353321 -3.8799359 
C         -1.1400570 -1.6606983 -4.8574530 
C         -1.2852044 -4.3097405 -2.1594231 
C         -0.3426216 -4.8571134 -1.3217471 
C          1.0868713 -4.7112242 -1.5192667 
C          1.6409776 -4.0133529 -2.5659066 
C          1.7315994 -5.8325075 -0.8983406 
C          0.7164480 -6.6690960 -0.3136122 
C         -0.5625937 -6.0640203 -0.5789044 
C         -2.5843069 -4.9384419 -2.0712241 
C         -2.7981811 -6.1097144 -1.3631007 
C         -1.7359148 -6.7926466 -0.6588413 
C         -1.5987002 -8.1722363 -0.2237186 
C         -0.3707846 -8.7523429  0.0225035 
C          0.8787494 -8.0269080 -0.1296306 
C          3.0122060 -4.3738484 -2.8509750 
C          3.6346751 -5.4612704 -2.2605074 
C          2.9578507 -6.3197233 -1.3137872 
C          3.2161467 -7.6873707 -0.8966622 
C          2.2391807 -8.4897004 -0.3425790 
H         -4.9366051  5.7110791 -1.4398592 
H         -4.1804391  3.7321813 -2.6956171 
H          2.7893201  4.2998280 -3.6273995 
H          3.5195500  6.4031210 -2.5753177 
H          2.6489911  8.6527576 -1.1156375 
H          0.6661494  9.7479689 -0.1365254 
H         -2.1157064  9.5197228  0.2394608 
H         -4.0849509  8.1012142 -0.2081813 
H         -2.5073105 -8.7663332 -0.1415200 
H         -0.3115850 -9.8041457  0.2971048 
H          2.4635878 -9.5249749 -0.0915793 
H          4.2107251 -8.0899828 -1.0808607 
H          4.6526949 -5.7213564 -2.5453702 
H          3.5476837 -3.7878951 -3.5963958 
H         -3.4057952 -4.4893008 -2.6272736 
H         -3.7841954 -6.5711799 -1.3677517 
H          1.7802624  2.4298208 -4.4442461 
H         -3.1303072  2.0066716 -3.7622702 
H          2.2116219 -2.1419481 -4.4184242 
H         -2.6909410 -2.6171171 -3.7159609 
H         -3.2915848  2.1278916 -6.5964006 
H         -4.7248223  0.7324675 -8.0704089 
H         -4.4915724 -1.7459860 -8.0459602 
H         -2.8255754 -2.8204846 -6.5481779 
H          1.1042001  2.5396013 -7.2282382 
H          2.2902897  1.3912042 -9.0857240 
H          2.5239781 -1.0870422 -9.0673263 
H          1.5709523 -2.4094793 -7.1915589 
C         -2.9699177  0.7936624  0.3116975 
C         -3.7660123  0.5069979  1.4114553 
C         -3.8367328 -0.8696128  1.9185243 
C         -3.8814141 -0.8111934  3.3851295 
C         -2.1989629 -0.2680232 -0.3412727 
C         -3.1065598 -1.8698671  1.2930744 
C         -2.1286903  1.9922216  0.3052429 
C         -3.7672229  1.4158812  2.5649874 
C         -3.8385143  0.6009161  3.7843671 
C         -2.9727218  2.5535073  2.5452050 
C         -3.1930733 -1.7572814  4.1315358 
C         -2.2648333 -1.5553567  0.1360191 
C         -2.3787997 -2.8610875  2.0902246 
C         -3.1106125  0.9761996  4.9047475 
C         -2.4216094 -2.8074240  3.4632934 
C         -2.4235669 -1.3511021  5.3094933 
C         -0.9005673  0.2902571 -0.7639984 
C         -2.1313884  2.8457554  1.3827531 
C         -0.8570529  1.6630029 -0.3654099 
C         -1.0353238 -2.3633003  0.2248885 
C         -1.1062350 -3.1626490  1.4103337 
C         -1.1947940 -3.0526748  4.2438266 
C         -1.1965456 -2.1659872  5.3683275 
C         -2.3839405 -0.0285932  5.6835041 
C          0.2727464 -0.5053578 -0.7963006 
C          0.2008183 -1.8829197 -0.2764406 
C          0.0575534 -3.5117137  2.1408945 
C          0.0114877 -3.4539510  3.6156430 
C          0.0075523 -1.6462541  5.9067777 
C         -1.1143119  0.5650118  6.1405733 
C          1.4992205  0.1975696 -0.6871699 
C          0.3571540  2.2922018  0.0085912 
C          1.3597052 -2.4579526  0.3025800 
C          1.2899108 -3.2575483  1.4887117 
C          1.2018779 -3.1470793  4.3222235 
C          1.1996436 -2.2602035  5.4468523 
C          0.0502034 -0.2260198  6.3085218 
C          2.7179061 -0.4600380 -0.1801163 
C          1.5401266  1.5737391 -0.2932784 
C          2.6511014 -1.7476222  0.2972254 
C          2.5350895 -3.0544487  2.2509652 
C          2.4923793 -3.0007876  3.6240624 
C          2.4879334 -1.5441946  5.4702479 
C          1.2814712  0.4707130  6.2192225 
C         -2.2041734  2.9392643  3.7314618 
C         -2.2712639  2.1758846  4.8727885 
C         -0.8624104  3.4262271  1.8604485 
C         -1.0454854  1.9073771  5.6467930 
C          0.3541977  3.2097427  1.1654014 
C          3.5254436  0.5396268  0.5239537 
C          2.7851854  1.8022544  0.4623780 
C          3.3883199 -2.1246679  1.5056773 
C          3.2984291 -2.0124232  4.3439065 
C          2.5277203 -0.2216910  5.8444743 
C          1.3504600  1.8133614  5.7253466 
C         -0.9069922  3.4843599  3.2902520 
C          0.1906704  2.5102894  5.3021603 
C          1.5350318  3.3320634  1.9388010 
C          4.2225660  0.1934961  1.6727228 
C          2.7824764  2.6528655  1.5427689 
C          4.1521241 -1.1830902  2.1798343 
C          4.1058424 -1.1249577  3.6464850 
C          3.3800909  0.7210479  5.1173128 
C          2.6412368  1.9827505  5.0336855 
C          0.2630878  3.3306450  4.0765554 
C          1.4901528  3.3901435  3.3691207 
C          4.2197666  1.1019408  2.8263406 
C          3.5198783  2.2980816  2.7573476 
C          4.1477495  0.2870409  4.0458101 
C          2.7086298  2.7458670  3.8921038 
