88

C         -6.4008103 -1.1890302  2.7807473 
C         -6.5649939  0.1957226  2.7827417 
C         -5.6489386  1.0217525  2.1124122 
C         -4.5725266  0.4488999  1.4423688 
C         -4.4049307 -0.9642051  1.4413823 
C         -5.3167428 -1.7756341  2.1087315 
C         -3.5414785  1.2241968  0.7088566 
C         -3.5414785  1.2241968 -0.7088566 
C         -2.4377168  1.7143083 -1.4001905 
C         -1.2568824  2.0738509 -0.7198253 
C         -1.2568824  2.0738509  0.7198253 
C         -2.4377168  1.7143083  1.4001905 
C         -0.0142707  2.2784045  1.4793237 
C          1.0580102  2.6977214  0.7261267 
C          1.0580102  2.6977214 -0.7261267 
C         -0.0142707  2.2784045 -1.4793237 
C          2.4177252  2.5356332 -1.1641227 
C          2.7565291  1.9449064 -2.3695760 
C          1.6324207  1.7067274 -3.2458554 
C          0.3247059  1.8646614 -2.8237241 
C          2.4177252  2.5356332  1.1641227 
C          2.7565291  1.9449064  2.3695760 
C          1.6324207  1.7067274  3.2458554 
C          0.3247059  1.8646614  2.8237241 
C          3.2615424  2.4472514  0.0000000 
C          4.1234818  1.4588999 -2.4334680 
C          4.9306177  1.3804071 -1.3181165 
C          4.4689506  1.7770107  0.0000000 
C          4.1234818  1.4588999  2.4334680 
C          4.9306177  1.3804071  1.3181165 
C         -4.5725266  0.4488999 -1.4423688 
C         -5.6489386  1.0217525 -2.1124122 
C         -6.5649939  0.1957226 -2.7827417 
C         -6.4008103 -1.1890302 -2.7807473 
C         -5.3167428 -1.7756341 -2.1087315 
C         -4.4049307 -0.9642051 -1.4413823 
C         -3.2186956 -1.4701473 -0.7074541 
C         -3.2186956 -1.4701473  0.7074541 
C         -2.0238786 -1.6585459  1.4022422 
C         -0.7948138 -1.6805579  0.7214496 
C         -0.7948138 -1.6805579 -0.7214496 
C         -2.0238786 -1.6585459 -1.4022422 
C          0.4616379 -1.5680179  1.4831201 
C          1.5237135 -1.1344157  0.7261464 
C          1.5237135 -1.1344157 -0.7261464 
C          0.4616379 -1.5680179 -1.4831201 
C          2.8844853 -1.2457443 -1.1638885 
C          3.2466084 -1.7945006 -2.3812571 
C          2.1274244 -2.0491720 -3.2593701 
C          0.8127627 -1.9457210 -2.8325296 
C          2.8844853 -1.2457443  1.1638885 
C          3.2466084 -1.7945006  2.3812571 
C          2.1274244 -2.0491720  3.2593701 
C          0.8127627 -1.9457210  2.8325296 
C          3.7295483 -1.3065144  0.0000000 
C          4.6379881 -2.2100533 -2.4430386 
C          5.4465407 -2.2650128 -1.3255781 
C          4.9693009 -1.9105517  0.0000000 
C          4.6379881 -2.2100533  2.4430386 
C          5.4465407 -2.2650128  1.3255781 
H         -2.4564939  1.7424811 -2.4901451 
H         -2.4564939  1.7424811  2.4901451 
H         -0.4918225  1.6157165 -3.4991294 
H         -0.4918225  1.6157165  3.4991294 
H          1.8379077  1.3339997 -4.2472499 
H          1.8379077  1.3339997  4.2472499 
H          4.4821631  1.0907183 -3.3924516 
H          4.4821631  1.0907183  3.3924516 
H          5.9259204  0.9469423 -1.3941287 
H          5.9259204  0.9469423  1.3941287 
H         -5.7812525  2.1020983 -2.1116532 
H         -5.7812525  2.1020983  2.1116532 
H         -7.4090917  0.6439075 -3.3037536 
H         -7.4090917  0.6439075  3.3037536 
H          0.0044967 -2.2046167 -3.5143085 
H          0.0044967 -2.2046167  3.5143084 
H          2.3409731 -2.3852090 -4.2720162 
H          2.3409731 -2.3852090  4.2720162 
H          5.0230213 -2.5330772 -3.4084072 
H          5.0230213 -2.5330772  3.4084072 
H          6.4675473 -2.6318047 -1.4110865 
H          6.4675473 -2.6318047  1.4110865 
H         -2.0352816 -1.6795568 -2.4922254 
H         -2.0352816 -1.6795568  2.4922254 
H         -5.1926834 -2.8566785 -2.1046698 
H         -5.1926834 -2.8566785  2.1046698 
H         -7.1166737 -1.8236373 -3.2997813 
H         -7.1166737 -1.8236373  3.2997813 
